{"content":[{"id":8280,"testProjectId":2537,"testProjectVersionId":3575,"testMode":"TEST","state":"TEST_PLANS_CREATED","displayState":"INITIALIZATION","userId":1922,"userEmail":"nagruzka3gr3@mail.com","teamId":22,"createDate":"2025-05-23T01:46:41.606Z","startDate":null,"endDate":null,"comment":"","labelSet":[],"testProject":{"id":2537,"projectName":"group_3_4811","settingsId":null,"comment":null,"lastModified":null,"contentFormat":null,"contentModelVersion":null,"labelSet":null,"testType":null,"requestCount":null,"totalDuration":null,"version":null},"testProjectVersion":{"id":3575,"projectId":2537,"settingsId":null,"createdOn":1747919340.511000000,"location":"boomq/teams/22/projects/2537/v_3575.yaml","comment":"","contentFormat":"yaml","contentModelVersion":"2.0.0","testType":"STABLE","requestCount":1,"totalDuration":60,"versionNumber":1},"testResult":{"testId":8280,"usersChartSvg":null,"testResultSlaState":"PROCESSING","slaResults":null,"testResultFilesState":"PROCESSING"},"testError":null},{"id":8279,"testProjectId":2544,"testProjectVersionId":3582,"testMode":"TEST","state":"FINISHED","displayState":"FINISHED","userId":1922,"userEmail":"nagruzka3gr3@mail.com","teamId":22,"createDate":"2025-05-23T01:32:30.889Z","startDate":"2025-05-23T01:32:33.131Z","endDate":"2025-05-23T01:33:30.827Z","comment":"","labelSet":[],"testProject":{"id":2544,"projectName":"group_3_5829","settingsId":null,"comment":null,"lastModified":null,"contentFormat":null,"contentModelVersion":null,"labelSet":null,"testType":null,"requestCount":null,"totalDuration":null,"version":null},"testProjectVersion":{"id":3582,"projectId":2544,"settingsId":null,"createdOn":1747925140.409000000,"location":"boomq/teams/22/projects/2544/v_3582.yaml","comment":"","contentFormat":"yaml","contentModelVersion":"2.0.0","testType":"STABLE","requestCount":1,"totalDuration":60,"versionNumber":1},"testResult":{"testId":8279,"usersChartSvg":"<svg xmlns=\"http://www.w3.org/2000/svg\" xmlns:xlink=\"http://www.w3.org/1999/xlink\" xmlns:jfreesvg=\"http://www.jfree.org/jfreesvg/svg\" width=\"150\" height=\"75\" text-rendering=\"auto\" shape-rendering=\"auto\">\n<defs><clipPath id=\"_55719120875441clip-0\"><path d=\"M 0 0 L 150 0 L 150 75 L 0 75 L 0 0 Z \"/></clipPath>\n<clipPath id=\"_55719120875441clip-1\"><path d=\"M 25 8 L 25 53 L 138 53 L 138 8 Z \"/></clipPath>\n</defs>\n<rect x=\"0\" y=\"0\" width=\"150\" height=\"75\" style=\"fill: rgb(255,255,255); fill-opacity: 1.0\" clip-path=\"url(#_55719120875441clip-0)\"/><rect x=\"25\" y=\"8\" width=\"113\" height=\"45\" style=\"fill: rgb(255,255,255); fill-opacity: 1.0\" clip-path=\"url(#_55719120875441clip-0)\"/><g ><text x=\"7\" y=\"69.11\" style=\"fill: rgb(0,0,0); fill-opacity: 1.0; font-family: sans-serif; font-size: 8px;\" clip-path=\"url(#_55719120875441clip-0)\">00:00:00</text></g><g ><text x=\"109.73\" y=\"69.11\" style=\"fill: rgb(0,0,0); fill-opacity: 1.0; font-family: sans-serif; font-size: 8px;\" clip-path=\"url(#_55719120875441clip-0)\">00:01:00</text></g><g ><text x=\"10\" y=\"56.11\" style=\"fill: rgb(0,0,0); fill-opacity: 1.0; font-family: sans-serif; font-size: 8px;\" clip-path=\"url(#_55719120875441clip-0)\">0</text></g><g ><text x=\"10\" y=\"13.26\" style=\"fill: rgb(0,0,0); fill-opacity: 1.0; font-family: sans-serif; font-size: 8px;\" clip-path=\"url(#_55719120875441clip-0)\">1</text></g><g style=\"stroke-width: 2.0;stroke: rgb(73,137,214);stroke-opacity: 1.0;stroke-linecap: square;shape-rendering:geometricPrecision;; fill: none\" clip-path=\"url(#_55719120875441clip-1)\"><path d=\"M 25 10.14 L 42.12 10.14 L 59.24 10.14 L 76.36 10.14 L 93.48 10.14 L 110.61 10.14 L 127.73 53\"/></g></svg>","testResultSlaState":"FINISHED","slaResults":{"slaGroupList":[{"type":"GENERAL_TEST_SLA","targetType":"TEST","slaList":[{"restrictionType":"AVERAGE","fromDate":0,"toDate":60,"operation":"LESS_EQUALS","value":123.0,"result":0.25,"status":"SUCCESS"},{"restrictionType":"ERROR_RATE","fromDate":0,"toDate":60,"operation":"LESS_EQUALS","value":33.0,"result":0.0,"status":"SUCCESS"}]},{"type":"THREAD_GROUP_SLA","targetType":"THREAD_GROUP","slaList":[{"restrictionType":"AVERAGE","fromDate":0,"toDate":60,"operation":"LESS_EQUALS","value":778.0,"result":0.25,"status":"SUCCESS"}],"threadGroupName":"random_test_479","threadGroupId":"2e6ba5cb-5c2c-4df6-bd3e-8d7a1ed15cc3"},{"type":"TRANSACTION_SLA","targetType":"TRANSACTION","slaList":[{"restrictionType":"AVERAGE","fromDate":0,"toDate":60,"operation":"LESS_EQUALS","value":6.0,"result":0.25,"status":"SUCCESS"}],"transactionName":"transaction_408","transactionId":"ab427d86-711c-49dd-b889-7ae727e22e53","threadGroupName":null,"threadGroupId":null},{"type":"REQUEST_SLA","targetType":"REQUEST","slaList":[{"restrictionType":"AVERAGE","fromDate":0,"toDate":60,"operation":"LESS_EQUALS","value":7.0,"result":0.25,"status":"SUCCESS"}],"requestName":"https://webtours.pflb.ru/WebTours/","transactionFilterType":"ANY_TRANSACTION","transactionName":null,"transactionId":null,"threadGroupName":null,"threadGroupId":null}],"status":"SUCCESS"},"testResultFilesState":"FINISHED"},"testError":null},{"id":8278,"testProjectId":2587,"testProjectVersionId":3643,"testMode":"TEST","state":"FINISHED","displayState":"FINISHED","userId":1922,"userEmail":"nagruzka3gr3@mail.com","teamId":22,"createDate":"2025-05-22T23:05:11.481Z","startDate":"2025-05-22T23:05:13.434Z","endDate":"2025-05-22T23:06:11.177Z","comment":"","labelSet":[],"testProject":{"id":2587,"projectName":"hadouken_test_8193","settingsId":null,"comment":null,"lastModified":null,"contentFormat":null,"contentModelVersion":null,"labelSet":null,"testType":null,"requestCount":null,"totalDuration":null,"version":null},"testProjectVersion":{"id":3643,"projectId":2587,"settingsId":null,"createdOn":1747950456.123000000,"location":"boomq/teams/22/projects/2587/v_3643.yaml","comment":"","contentFormat":"yaml","contentModelVersion":"2.0.0","testType":"STABLE","requestCount":1,"totalDuration":60,"versionNumber":1},"testResult":{"testId":8278,"usersChartSvg":"<svg xmlns=\"http://www.w3.org/2000/svg\" xmlns:xlink=\"http://www.w3.org/1999/xlink\" xmlns:jfreesvg=\"http://www.jfree.org/jfreesvg/svg\" width=\"150\" height=\"75\" text-rendering=\"auto\" shape-rendering=\"auto\">\n<defs><clipPath id=\"_46881669929801clip-0\"><path d=\"M 0 0 L 150 0 L 150 75 L 0 75 L 0 0 Z \"/></clipPath>\n<clipPath id=\"_46881669929801clip-1\"><path d=\"M 25 8 L 25 53 L 138 53 L 138 8 Z \"/></clipPath>\n</defs>\n<rect x=\"0\" y=\"0\" width=\"150\" height=\"75\" style=\"fill: rgb(255,255,255); fill-opacity: 1.0\" clip-path=\"url(#_46881669929801clip-0)\"/><rect x=\"25\" y=\"8\" width=\"113\" height=\"45\" style=\"fill: rgb(255,255,255); fill-opacity: 1.0\" clip-path=\"url(#_46881669929801clip-0)\"/><g ><text x=\"7\" y=\"69.11\" style=\"fill: rgb(0,0,0); fill-opacity: 1.0; font-family: sans-serif; font-size: 8px;\" clip-path=\"url(#_46881669929801clip-0)\">00:00:00</text></g><g ><text x=\"109.73\" y=\"69.11\" style=\"fill: rgb(0,0,0); fill-opacity: 1.0; font-family: sans-serif; font-size: 8px;\" clip-path=\"url(#_46881669929801clip-0)\">00:01:00</text></g><g ><text x=\"10\" y=\"56.11\" style=\"fill: rgb(0,0,0); fill-opacity: 1.0; font-family: sans-serif; font-size: 8px;\" clip-path=\"url(#_46881669929801clip-0)\">0</text></g><g ><text x=\"10\" y=\"13.26\" style=\"fill: rgb(0,0,0); fill-opacity: 1.0; font-family: sans-serif; font-size: 8px;\" clip-path=\"url(#_46881669929801clip-0)\">1</text></g><g style=\"stroke-width: 2.0;stroke: rgb(73,137,214);stroke-opacity: 1.0;stroke-linecap: square;shape-rendering:geometricPrecision;; fill: none\" clip-path=\"url(#_46881669929801clip-1)\"><path d=\"M 25 10.14 L 42.12 10.14 L 59.24 10.14 L 76.36 10.14 L 93.48 10.14 L 110.61 10.14 L 127.73 53\"/></g></svg>","testResultSlaState":"FINISHED","slaResults":{"slaGroupList":[{"type":"GENERAL_TEST_SLA","targetType":"TEST","slaList":[{"restrictionType":"AVERAGE","fromDate":0,"toDate":60,"operation":"LESS_EQUALS","value":123.0,"result":0.26,"status":"SUCCESS"},{"restrictionType":"ERROR_RATE","fromDate":0,"toDate":60,"operation":"LESS_EQUALS","value":33.0,"result":0.0,"status":"SUCCESS"}]},{"type":"THREAD_GROUP_SLA","targetType":"THREAD_GROUP","slaList":[{"restrictionType":"AVERAGE","fromDate":0,"toDate":60,"operation":"LESS_EQUALS","value":778.0,"result":0.26,"status":"SUCCESS"}],"threadGroupName":"random_test_283","threadGroupId":"2e6ba5cb-5c2c-4df6-bd3e-8d7a1ed15cc3"},{"type":"TRANSACTION_SLA","targetType":"TRANSACTION","slaList":[{"restrictionType":"AVERAGE","fromDate":0,"toDate":60,"operation":"LESS_EQUALS","value":6.0,"result":0.26,"status":"SUCCESS"}],"transactionName":"transaction_373","transactionId":"ab427d86-711c-49dd-b889-7ae727e22e53","threadGroupName":null,"threadGroupId":null},{"type":"REQUEST_SLA","targetType":"REQUEST","slaList":[{"restrictionType":"AVERAGE","fromDate":0,"toDate":60,"operation":"LESS_EQUALS","value":7.0,"result":0.26,"status":"SUCCESS"}],"requestName":"https://webtours.pflb.ru/WebTours/","transactionFilterType":"ANY_TRANSACTION","transactionName":null,"transactionId":null,"threadGroupName":null,"threadGroupId":null}],"status":"SUCCESS"},"testResultFilesState":"FINISHED"},"testError":null},{"id":8265,"testProjectId":2534,"testProjectVersionId":3572,"testMode":"TEST","state":"FINISHED","displayState":"FINISHED","userId":1922,"userEmail":"nagruzka3gr3@mail.com","teamId":22,"createDate":"2025-05-22T16:10:13.380Z","startDate":"2025-05-22T16:10:15.542Z","endDate":"2025-05-22T16:11:13.727Z","comment":"","labelSet":[],"testProject":{"id":2534,"projectName":"group_3_4811","settingsId":null,"comment":null,"lastModified":null,"contentFormat":null,"contentModelVersion":null,"labelSet":null,"testType":null,"requestCount":null,"totalDuration":null,"version":null},"testProjectVersion":{"id":3572,"projectId":2534,"settingsId":null,"createdOn":1747919324.541000000,"location":"boomq/teams/22/projects/2534/v_3572.yaml","comment":"","contentFormat":"yaml","contentModelVersion":"2.0.0","testType":"STABLE","requestCount":1,"totalDuration":60,"versionNumber":1},"testResult":{"testId":8265,"usersChartSvg":"<svg xmlns=\"http://www.w3.org/2000/svg\" xmlns:xlink=\"http://www.w3.org/1999/xlink\" xmlns:jfreesvg=\"http://www.jfree.org/jfreesvg/svg\" width=\"150\" height=\"75\" text-rendering=\"auto\" shape-rendering=\"auto\">\n<defs><clipPath id=\"_21986563536453clip-0\"><path d=\"M 0 0 L 150 0 L 150 75 L 0 75 L 0 0 Z \"/></clipPath>\n<clipPath id=\"_21986563536453clip-1\"><path d=\"M 25 8 L 25 53 L 138 53 L 138 8 Z \"/></clipPath>\n</defs>\n<rect x=\"0\" y=\"0\" width=\"150\" height=\"75\" style=\"fill: rgb(255,255,255); fill-opacity: 1.0\" clip-path=\"url(#_21986563536453clip-0)\"/><rect x=\"25\" y=\"8\" width=\"113\" height=\"45\" style=\"fill: rgb(255,255,255); fill-opacity: 1.0\" clip-path=\"url(#_21986563536453clip-0)\"/><g ><text x=\"7\" y=\"69.11\" style=\"fill: rgb(0,0,0); fill-opacity: 1.0; font-family: sans-serif; font-size: 8px;\" clip-path=\"url(#_21986563536453clip-0)\">00:00:00</text></g><g ><text x=\"109.73\" y=\"69.11\" style=\"fill: rgb(0,0,0); fill-opacity: 1.0; font-family: sans-serif; font-size: 8px;\" clip-path=\"url(#_21986563536453clip-0)\">00:01:00</text></g><g ><text x=\"10\" y=\"56.11\" style=\"fill: rgb(0,0,0); fill-opacity: 1.0; font-family: sans-serif; font-size: 8px;\" clip-path=\"url(#_21986563536453clip-0)\">0</text></g><g ><text x=\"10\" y=\"13.26\" style=\"fill: rgb(0,0,0); fill-opacity: 1.0; font-family: sans-serif; font-size: 8px;\" clip-path=\"url(#_21986563536453clip-0)\">1</text></g><g style=\"stroke-width: 2.0;stroke: rgb(73,137,214);stroke-opacity: 1.0;stroke-linecap: square;shape-rendering:geometricPrecision;; fill: none\" clip-path=\"url(#_21986563536453clip-1)\"><path d=\"M 25 53 L 42.12 10.14 L 59.24 10.14 L 76.36 10.14 L 93.48 10.14 L 110.61 10.14 L 127.73 53\"/></g></svg>","testResultSlaState":"FINISHED","slaResults":{"slaGroupList":[{"type":"GENERAL_TEST_SLA","targetType":"TEST","slaList":[{"restrictionType":"AVERAGE","fromDate":0,"toDate":60,"operation":"LESS_EQUALS","value":123.0,"result":0.35,"status":"SUCCESS"},{"restrictionType":"ERROR_RATE","fromDate":0,"toDate":60,"operation":"LESS_EQUALS","value":33.0,"result":0.0,"status":"SUCCESS"}]},{"type":"THREAD_GROUP_SLA","targetType":"THREAD_GROUP","slaList":[{"restrictionType":"AVERAGE","fromDate":0,"toDate":60,"operation":"LESS_EQUALS","value":778.0,"result":0.35,"status":"SUCCESS"}],"threadGroupName":"random_test_709","threadGroupId":"2e6ba5cb-5c2c-4df6-bd3e-8d7a1ed15cc3"},{"type":"TRANSACTION_SLA","targetType":"TRANSACTION","slaList":[{"restrictionType":"AVERAGE","fromDate":0,"toDate":60,"operation":"LESS_EQUALS","value":6.0,"result":0.34,"status":"SUCCESS"}],"transactionName":"transaction_573","transactionId":"ab427d86-711c-49dd-b889-7ae727e22e53","threadGroupName":null,"threadGroupId":null},{"type":"REQUEST_SLA","targetType":"REQUEST","slaList":[{"restrictionType":"AVERAGE","fromDate":0,"toDate":60,"operation":"LESS_EQUALS","value":7.0,"result":0.35,"status":"SUCCESS"}],"requestName":"https://webtours.pflb.ru/WebTours/","transactionFilterType":"ANY_TRANSACTION","transactionName":null,"transactionId":null,"threadGroupName":null,"threadGroupId":null}],"status":"SUCCESS"},"testResultFilesState":"FINISHED"},"testError":null},{"id":8264,"testProjectId":2517,"testProjectVersionId":3552,"testMode":"TEST","state":"FINISHED","displayState":"FINISHED","userId":1922,"userEmail":"nagruzka3gr3@mail.com","teamId":22,"createDate":"2025-05-22T16:10:08.033Z","startDate":"2025-05-22T16:10:10.214Z","endDate":"2025-05-22T16:11:08.252Z","comment":"","labelSet":[],"testProject":{"id":2517,"projectName":"group_3_4936","settingsId":null,"comment":null,"lastModified":null,"contentFormat":null,"contentModelVersion":null,"labelSet":null,"testType":null,"requestCount":null,"totalDuration":null,"version":null},"testProjectVersion":{"id":3552,"projectId":2517,"settingsId":null,"createdOn":1747912081.421000000,"location":"boomq/teams/22/projects/2517/v_3552.yaml","comment":"","contentFormat":"yaml","contentModelVersion":"2.0.0","testType":"STABLE","requestCount":1,"totalDuration":60,"versionNumber":1},"testResult":{"testId":8264,"usersChartSvg":"<svg xmlns=\"http://www.w3.org/2000/svg\" xmlns:xlink=\"http://www.w3.org/1999/xlink\" xmlns:jfreesvg=\"http://www.jfree.org/jfreesvg/svg\" width=\"150\" height=\"75\" text-rendering=\"auto\" shape-rendering=\"auto\">\n<defs><clipPath id=\"_21971536374994clip-0\"><path d=\"M 0 0 L 150 0 L 150 75 L 0 75 L 0 0 Z \"/></clipPath>\n<clipPath id=\"_21971536374994clip-1\"><path d=\"M 25 8 L 25 53 L 138 53 L 138 8 Z \"/></clipPath>\n</defs>\n<rect x=\"0\" y=\"0\" width=\"150\" height=\"75\" style=\"fill: rgb(255,255,255); fill-opacity: 1.0\" clip-path=\"url(#_21971536374994clip-0)\"/><rect x=\"25\" y=\"8\" width=\"113\" height=\"45\" style=\"fill: rgb(255,255,255); fill-opacity: 1.0\" clip-path=\"url(#_21971536374994clip-0)\"/><g ><text x=\"7\" y=\"69.11\" style=\"fill: rgb(0,0,0); fill-opacity: 1.0; font-family: sans-serif; font-size: 8px;\" clip-path=\"url(#_21971536374994clip-0)\">00:00:00</text></g><g ><text x=\"109.73\" y=\"69.11\" style=\"fill: rgb(0,0,0); fill-opacity: 1.0; font-family: sans-serif; font-size: 8px;\" clip-path=\"url(#_21971536374994clip-0)\">00:00:50</text></g><g ><text x=\"10\" y=\"56.11\" style=\"fill: rgb(0,0,0); fill-opacity: 1.0; font-family: sans-serif; font-size: 8px;\" clip-path=\"url(#_21971536374994clip-0)\">0</text></g><g ><text x=\"10\" y=\"13.26\" style=\"fill: rgb(0,0,0); fill-opacity: 1.0; font-family: sans-serif; font-size: 8px;\" clip-path=\"url(#_21971536374994clip-0)\">1</text></g><g style=\"stroke-width: 2.0;stroke: rgb(73,137,214);stroke-opacity: 1.0;stroke-linecap: square;shape-rendering:geometricPrecision;; fill: none\" clip-path=\"url(#_21971536374994clip-1)\"><path d=\"M 25 10.14 L 45.55 10.14 L 66.09 10.14 L 86.64 10.14 L 107.18 10.14 L 127.73 53\"/></g></svg>","testResultSlaState":"FINISHED","slaResults":{"slaGroupList":[{"type":"GENERAL_TEST_SLA","targetType":"TEST","slaList":[{"restrictionType":"AVERAGE","fromDate":6,"toDate":46,"operation":"LESS_EQUALS","value":15.0,"result":0.33,"status":"SUCCESS"},{"restrictionType":"ERROR_RATE","fromDate":10,"toDate":53,"operation":"LESS_EQUALS","value":5.0,"result":0.0,"status":"SUCCESS"}]},{"type":"THREAD_GROUP_SLA","targetType":"THREAD_GROUP","slaList":[{"restrictionType":"AVERAGE","fromDate":4,"toDate":20,"operation":"LESS_EQUALS","value":5.0,"result":null,"status":"NOT_COUNTED"}],"threadGroupName":"random_test","threadGroupId":"2e6ba5cb-5c2c-4df6-bd3e-8d7a1ed15cc3"},{"type":"TRANSACTION_SLA","targetType":"TRANSACTION","slaList":[{"restrictionType":"AVERAGE","fromDate":13,"toDate":51,"operation":"LESS_EQUALS","value":6.0,"result":null,"status":"NOT_COUNTED"}],"transactionName":"random_transaction_666","transactionId":"ab427d86-711c-49dd-b889-7ae727e22e53","threadGroupName":null,"threadGroupId":null},{"type":"REQUEST_SLA","targetType":"REQUEST","slaList":[{"restrictionType":"AVERAGE","fromDate":8,"toDate":53,"operation":"LESS_EQUALS","value":7.0,"result":0.31,"status":"SUCCESS"}],"requestName":"https://webtours.pflb.ru/WebTours/","transactionFilterType":"ANY_TRANSACTION","transactionName":null,"transactionId":null,"threadGroupName":null,"threadGroupId":null}],"status":"FAILURE"},"testResultFilesState":"FINISHED"},"testError":null},{"id":8263,"testProjectId":2540,"testProjectVersionId":3578,"testMode":"TEST","state":"FINISHED","displayState":"FINISHED","userId":1922,"userEmail":"nagruzka3gr3@mail.com","teamId":22,"createDate":"2025-05-22T16:06:26.488Z","startDate":"2025-05-22T16:06:28.763Z","endDate":"2025-05-22T16:07:26.888Z","comment":"","labelSet":[],"testProject":{"id":2540,"projectName":"group_3_4811","settingsId":null,"comment":null,"lastModified":null,"contentFormat":null,"contentModelVersion":null,"labelSet":null,"testType":null,"requestCount":null,"totalDuration":null,"version":null},"testProjectVersion":{"id":3578,"projectId":2540,"settingsId":null,"createdOn":1747919356.345000000,"location":"boomq/teams/22/projects/2540/v_3578.yaml","comment":"","contentFormat":"yaml","contentModelVersion":"2.0.0","testType":"STABLE","requestCount":1,"totalDuration":60,"versionNumber":1},"testResult":{"testId":8263,"usersChartSvg":"<svg xmlns=\"http://www.w3.org/2000/svg\" xmlns:xlink=\"http://www.w3.org/1999/xlink\" xmlns:jfreesvg=\"http://www.jfree.org/jfreesvg/svg\" width=\"150\" height=\"75\" text-rendering=\"auto\" shape-rendering=\"auto\">\n<defs><clipPath id=\"_21746458784362clip-0\"><path d=\"M 0 0 L 150 0 L 150 75 L 0 75 L 0 0 Z \"/></clipPath>\n<clipPath id=\"_21746458784362clip-1\"><path d=\"M 25 8 L 25 53 L 138 53 L 138 8 Z \"/></clipPath>\n</defs>\n<rect x=\"0\" y=\"0\" width=\"150\" height=\"75\" style=\"fill: rgb(255,255,255); fill-opacity: 1.0\" clip-path=\"url(#_21746458784362clip-0)\"/><rect x=\"25\" y=\"8\" width=\"113\" height=\"45\" style=\"fill: rgb(255,255,255); fill-opacity: 1.0\" clip-path=\"url(#_21746458784362clip-0)\"/><g ><text x=\"7\" y=\"69.11\" style=\"fill: rgb(0,0,0); fill-opacity: 1.0; font-family: sans-serif; font-size: 8px;\" clip-path=\"url(#_21746458784362clip-0)\">00:00:00</text></g><g ><text x=\"109.73\" y=\"69.11\" style=\"fill: rgb(0,0,0); fill-opacity: 1.0; font-family: sans-serif; font-size: 8px;\" clip-path=\"url(#_21746458784362clip-0)\">00:01:00</text></g><g ><text x=\"10\" y=\"56.11\" style=\"fill: rgb(0,0,0); fill-opacity: 1.0; font-family: sans-serif; font-size: 8px;\" clip-path=\"url(#_21746458784362clip-0)\">0</text></g><g ><text x=\"10\" y=\"13.26\" style=\"fill: rgb(0,0,0); fill-opacity: 1.0; font-family: sans-serif; font-size: 8px;\" clip-path=\"url(#_21746458784362clip-0)\">1</text></g><g style=\"stroke-width: 2.0;stroke: rgb(73,137,214);stroke-opacity: 1.0;stroke-linecap: square;shape-rendering:geometricPrecision;; fill: none\" clip-path=\"url(#_21746458784362clip-1)\"><path d=\"M 25 53 L 42.12 10.14 L 59.24 10.14 L 76.36 10.14 L 93.48 10.14 L 110.61 10.14 L 127.73 53\"/></g></svg>","testResultSlaState":"FINISHED","slaResults":{"slaGroupList":[{"type":"GENERAL_TEST_SLA","targetType":"TEST","slaList":[{"restrictionType":"AVERAGE","fromDate":0,"toDate":60,"operation":"LESS_EQUALS","value":123.0,"result":0.3,"status":"SUCCESS"},{"restrictionType":"ERROR_RATE","fromDate":0,"toDate":60,"operation":"LESS_EQUALS","value":33.0,"result":0.0,"status":"SUCCESS"}]},{"type":"THREAD_GROUP_SLA","targetType":"THREAD_GROUP","slaList":[{"restrictionType":"AVERAGE","fromDate":0,"toDate":60,"operation":"LESS_EQUALS","value":778.0,"result":0.3,"status":"SUCCESS"}],"threadGroupName":"random_test_709","threadGroupId":"2e6ba5cb-5c2c-4df6-bd3e-8d7a1ed15cc3"},{"type":"TRANSACTION_SLA","targetType":"TRANSACTION","slaList":[{"restrictionType":"AVERAGE","fromDate":0,"toDate":60,"operation":"LESS_EQUALS","value":6.0,"result":0.3,"status":"SUCCESS"}],"transactionName":"transaction_573","transactionId":"ab427d86-711c-49dd-b889-7ae727e22e53","threadGroupName":null,"threadGroupId":null},{"type":"REQUEST_SLA","targetType":"REQUEST","slaList":[{"restrictionType":"AVERAGE","fromDate":0,"toDate":60,"operation":"LESS_EQUALS","value":7.0,"result":0.3,"status":"SUCCESS"}],"requestName":"https://webtours.pflb.ru/WebTours/","transactionFilterType":"ANY_TRANSACTION","transactionName":null,"transactionId":null,"threadGroupName":null,"threadGroupId":null}],"status":"SUCCESS"},"testResultFilesState":"FINISHED"},"testError":null},{"id":8262,"testProjectId":2524,"testProjectVersionId":3562,"testMode":"TEST","state":"FINISHED","displayState":"FINISHED","userId":1922,"userEmail":"nagruzka3gr3@mail.com","teamId":22,"createDate":"2025-05-22T16:06:19.736Z","startDate":"2025-05-22T16:06:21.967Z","endDate":"2025-05-22T16:07:20.015Z","comment":"","labelSet":[],"testProject":{"id":2524,"projectName":"group_3_4279","settingsId":null,"comment":null,"lastModified":null,"contentFormat":null,"contentModelVersion":null,"labelSet":null,"testType":null,"requestCount":null,"totalDuration":null,"version":null},"testProjectVersion":{"id":3562,"projectId":2524,"settingsId":null,"createdOn":1747914636.100000000,"location":"boomq/teams/22/projects/2524/v_3562.yaml","comment":"","contentFormat":"yaml","contentModelVersion":"2.0.0","testType":"STABLE","requestCount":1,"totalDuration":60,"versionNumber":1},"testResult":{"testId":8262,"usersChartSvg":"<svg xmlns=\"http://www.w3.org/2000/svg\" xmlns:xlink=\"http://www.w3.org/1999/xlink\" xmlns:jfreesvg=\"http://www.jfree.org/jfreesvg/svg\" width=\"150\" height=\"75\" text-rendering=\"auto\" shape-rendering=\"auto\">\n<defs><clipPath id=\"_21746447811766clip-0\"><path d=\"M 0 0 L 150 0 L 150 75 L 0 75 L 0 0 Z \"/></clipPath>\n<clipPath id=\"_21746447811766clip-1\"><path d=\"M 25 8 L 25 53 L 138 53 L 138 8 Z \"/></clipPath>\n</defs>\n<rect x=\"0\" y=\"0\" width=\"150\" height=\"75\" style=\"fill: rgb(255,255,255); fill-opacity: 1.0\" clip-path=\"url(#_21746447811766clip-0)\"/><rect x=\"25\" y=\"8\" width=\"113\" height=\"45\" style=\"fill: rgb(255,255,255); fill-opacity: 1.0\" clip-path=\"url(#_21746447811766clip-0)\"/><g ><text x=\"7\" y=\"69.11\" style=\"fill: rgb(0,0,0); fill-opacity: 1.0; font-family: sans-serif; font-size: 8px;\" clip-path=\"url(#_21746447811766clip-0)\">00:00:00</text></g><g ><text x=\"109.73\" y=\"69.11\" style=\"fill: rgb(0,0,0); fill-opacity: 1.0; font-family: sans-serif; font-size: 8px;\" clip-path=\"url(#_21746447811766clip-0)\">00:01:00</text></g><g ><text x=\"10\" y=\"56.11\" style=\"fill: rgb(0,0,0); fill-opacity: 1.0; font-family: sans-serif; font-size: 8px;\" clip-path=\"url(#_21746447811766clip-0)\">0</text></g><g ><text x=\"10\" y=\"13.26\" style=\"fill: rgb(0,0,0); fill-opacity: 1.0; font-family: sans-serif; font-size: 8px;\" clip-path=\"url(#_21746447811766clip-0)\">1</text></g><g style=\"stroke-width: 2.0;stroke: rgb(73,137,214);stroke-opacity: 1.0;stroke-linecap: square;shape-rendering:geometricPrecision;; fill: none\" clip-path=\"url(#_21746447811766clip-1)\"><path d=\"M 25 10.14 L 42.12 10.14 L 59.24 10.14 L 76.36 10.14 L 93.48 10.14 L 110.61 10.14 L 127.73 53\"/></g></svg>","testResultSlaState":"FINISHED","slaResults":{"slaGroupList":[{"type":"GENERAL_TEST_SLA","targetType":"TEST","slaList":[{"restrictionType":"AVERAGE","fromDate":6,"toDate":46,"operation":"LESS_EQUALS","value":15.0,"result":0.32,"status":"SUCCESS"},{"restrictionType":"ERROR_RATE","fromDate":10,"toDate":53,"operation":"LESS_EQUALS","value":5.0,"result":0.0,"status":"SUCCESS"}]},{"type":"THREAD_GROUP_SLA","targetType":"THREAD_GROUP","slaList":[{"restrictionType":"AVERAGE","fromDate":4,"toDate":20,"operation":"LESS_EQUALS","value":5.0,"result":null,"status":"NOT_COUNTED"}],"threadGroupName":"random_test","threadGroupId":"2e6ba5cb-5c2c-4df6-bd3e-8d7a1ed15cc3"},{"type":"TRANSACTION_SLA","targetType":"TRANSACTION","slaList":[{"restrictionType":"AVERAGE","fromDate":13,"toDate":51,"operation":"LESS_EQUALS","value":6.0,"result":null,"status":"NOT_COUNTED"}],"transactionName":"random_transaction_666","transactionId":"ab427d86-711c-49dd-b889-7ae727e22e53","threadGroupName":null,"threadGroupId":null},{"type":"REQUEST_SLA","targetType":"REQUEST","slaList":[{"restrictionType":"AVERAGE","fromDate":8,"toDate":53,"operation":"LESS_EQUALS","value":7.0,"result":0.31,"status":"SUCCESS"}],"requestName":"https://webtours.pflb.ru/WebTours/","transactionFilterType":"ANY_TRANSACTION","transactionName":null,"transactionId":null,"threadGroupName":null,"threadGroupId":null}],"status":"FAILURE"},"testResultFilesState":"FINISHED"},"testError":null}],"pageable":{"sort":{"unsorted":false,"sorted":true,"empty":false},"offset":0,"pageNumber":0,"pageSize":7,"paged":true,"unpaged":false},"totalElements":37,"totalPages":6,"last":false,"first":true,"sort":{"unsorted":false,"sorted":true,"empty":false},"size":7,"number":0,"numberOfElements":7,"empty":false}