{"content":[{"id":9149,"testProjectId":7566,"testProjectVersionId":8647,"testMode":"TEST","state":"TEST_PLANS_CREATED","displayState":"INITIALIZATION","userId":5881,"userEmail":"nagruzka3_gr01@mail.com","teamId":25,"createDate":"2025-05-21T14:17:25.450Z","startDate":null,"endDate":null,"comment":"","labelSet":[],"testProject":{"id":7566,"projectName":"hadouken_test_666","settingsId":null,"comment":null,"lastModified":null,"contentFormat":null,"contentModelVersion":null,"labelSet":null,"testType":null,"requestCount":null,"totalDuration":null,"version":null},"testProjectVersion":{"id":8647,"projectId":7566,"settingsId":null,"createdOn":1747829875.690000000,"location":"boomq/teams/25/projects/7566/v_8647.yaml","comment":"","contentFormat":"yaml","contentModelVersion":"2.0.0","testType":"STABLE","requestCount":1,"totalDuration":60,"versionNumber":1},"testResult":{"testId":9149,"usersChartSvg":null,"testResultSlaState":"PROCESSING","slaResults":null,"testResultFilesState":"PROCESSING"},"testError":null},{"id":9148,"testProjectId":7566,"testProjectVersionId":8647,"testMode":"TEST","state":"FINISHED","displayState":"FINISHED","userId":5881,"userEmail":"nagruzka3_gr01@mail.com","teamId":25,"createDate":"2025-05-21T14:12:15.232Z","startDate":"2025-05-21T14:12:26.479Z","endDate":"2025-05-21T14:13:24.230Z","comment":"","labelSet":[],"testProject":{"id":7566,"projectName":"hadouken_test_666","settingsId":null,"comment":null,"lastModified":null,"contentFormat":null,"contentModelVersion":null,"labelSet":null,"testType":null,"requestCount":null,"totalDuration":null,"version":null},"testProjectVersion":{"id":8647,"projectId":7566,"settingsId":null,"createdOn":1747829875.690000000,"location":"boomq/teams/25/projects/7566/v_8647.yaml","comment":"","contentFormat":"yaml","contentModelVersion":"2.0.0","testType":"STABLE","requestCount":1,"totalDuration":60,"versionNumber":1},"testResult":{"testId":9148,"usersChartSvg":"<svg xmlns=\"http://www.w3.org/2000/svg\" xmlns:xlink=\"http://www.w3.org/1999/xlink\" xmlns:jfreesvg=\"http://www.jfree.org/jfreesvg/svg\" width=\"150\" height=\"75\" text-rendering=\"auto\" shape-rendering=\"auto\">\n<defs><clipPath id=\"_1491005693578505clip-0\"><path d=\"M 0 0 L 150 0 L 150 75 L 0 75 L 0 0 Z \"/></clipPath>\n<clipPath id=\"_1491005693578505clip-1\"><path d=\"M 25 8 L 25 53 L 138 53 L 138 8 Z \"/></clipPath>\n</defs>\n<rect x=\"0\" y=\"0\" width=\"150\" height=\"75\" style=\"fill: rgb(255,255,255); fill-opacity: 1.0\" clip-path=\"url(#_1491005693578505clip-0)\"/><rect x=\"25\" y=\"8\" width=\"113\" height=\"45\" style=\"fill: rgb(255,255,255); fill-opacity: 1.0\" clip-path=\"url(#_1491005693578505clip-0)\"/><g ><text x=\"7\" y=\"69.11\" style=\"fill: rgb(0,0,0); fill-opacity: 1.0; font-family: sans-serif; font-size: 8px;\" clip-path=\"url(#_1491005693578505clip-0)\">00:00:00</text></g><g ><text x=\"109.73\" y=\"69.11\" style=\"fill: rgb(0,0,0); fill-opacity: 1.0; font-family: sans-serif; font-size: 8px;\" clip-path=\"url(#_1491005693578505clip-0)\">00:01:00</text></g><g ><text x=\"10\" y=\"56.11\" style=\"fill: rgb(0,0,0); fill-opacity: 1.0; font-family: sans-serif; font-size: 8px;\" clip-path=\"url(#_1491005693578505clip-0)\">0</text></g><g ><text x=\"10\" y=\"13.26\" style=\"fill: rgb(0,0,0); fill-opacity: 1.0; font-family: sans-serif; font-size: 8px;\" clip-path=\"url(#_1491005693578505clip-0)\">1</text></g><g style=\"stroke-width: 2.0;stroke: rgb(73,137,214);stroke-opacity: 1.0;stroke-linecap: square;shape-rendering:geometricPrecision;; fill: none\" clip-path=\"url(#_1491005693578505clip-1)\"><path d=\"M 25 53 L 42.12 10.14 L 59.24 10.14 L 76.36 10.14 L 93.48 10.14 L 110.61 10.14 L 127.73 53\"/></g></svg>","testResultSlaState":"FINISHED","slaResults":{"slaGroupList":[{"type":"GENERAL_TEST_SLA","targetType":"TEST","slaList":[{"restrictionType":"AVERAGE","fromDate":6,"toDate":46,"operation":"LESS_EQUALS","value":123.0,"result":0.29,"status":"SUCCESS"},{"restrictionType":"ERROR_RATE","fromDate":10,"toDate":53,"operation":"LESS_EQUALS","value":33.0,"result":0.0,"status":"SUCCESS"}]},{"type":"THREAD_GROUP_SLA","targetType":"THREAD_GROUP","slaList":[{"restrictionType":"AVERAGE","fromDate":4,"toDate":54,"operation":"LESS_EQUALS","value":778.0,"result":0.27,"status":"SUCCESS"}],"threadGroupName":"random_test","threadGroupId":"2e6ba5cb-5c2c-4df6-bd3e-8d7a1ed15cc3"},{"type":"TRANSACTION_SLA","targetType":"TRANSACTION","slaList":[{"restrictionType":"AVERAGE","fromDate":13,"toDate":51,"operation":"LESS_EQUALS","value":6.0,"result":0.24,"status":"SUCCESS"}],"transactionName":"random_transaction_666","transactionId":"ab427d86-711c-49dd-b889-7ae727e22e53","threadGroupName":null,"threadGroupId":null},{"type":"REQUEST_SLA","targetType":"REQUEST","slaList":[{"restrictionType":"AVERAGE","fromDate":8,"toDate":53,"operation":"LESS_EQUALS","value":7.0,"result":0.27,"status":"SUCCESS"}],"requestName":"https://webtours.pflb.ru/WebTours/","transactionFilterType":"ANY_TRANSACTION","transactionName":null,"transactionId":null,"threadGroupName":null,"threadGroupId":null}],"status":"SUCCESS"},"testResultFilesState":"FINISHED"},"testError":null},{"id":9147,"testProjectId":7565,"testProjectVersionId":8648,"testMode":"TEST","state":"FINISHED","displayState":"FINISHED","userId":5881,"userEmail":"nagruzka3_gr01@mail.com","teamId":25,"createDate":"2025-05-21T14:10:11.330Z","startDate":"2025-05-21T14:10:24.047Z","endDate":"2025-05-21T14:11:21.736Z","comment":"","labelSet":[],"testProject":{"id":7565,"projectName":"hadouken_666","settingsId":null,"comment":null,"lastModified":null,"contentFormat":null,"contentModelVersion":null,"labelSet":null,"testType":null,"requestCount":null,"totalDuration":null,"version":null},"testProjectVersion":{"id":8648,"projectId":7565,"settingsId":null,"createdOn":1747829909.997000000,"location":"boomq/teams/25/projects/7565/v_8648.yaml","comment":"","contentFormat":"yaml","contentModelVersion":"2.0.0","testType":"STABLE","requestCount":1,"totalDuration":60,"versionNumber":2},"testResult":{"testId":9147,"usersChartSvg":"<svg xmlns=\"http://www.w3.org/2000/svg\" xmlns:xlink=\"http://www.w3.org/1999/xlink\" xmlns:jfreesvg=\"http://www.jfree.org/jfreesvg/svg\" width=\"150\" height=\"75\" text-rendering=\"auto\" shape-rendering=\"auto\">\n<defs><clipPath id=\"_1490885590807769clip-0\"><path d=\"M 0 0 L 150 0 L 150 75 L 0 75 L 0 0 Z \"/></clipPath>\n<clipPath id=\"_1490885590807769clip-1\"><path d=\"M 25 8 L 25 53 L 138 53 L 138 8 Z \"/></clipPath>\n</defs>\n<rect x=\"0\" y=\"0\" width=\"150\" height=\"75\" style=\"fill: rgb(255,255,255); fill-opacity: 1.0\" clip-path=\"url(#_1490885590807769clip-0)\"/><rect x=\"25\" y=\"8\" width=\"113\" height=\"45\" style=\"fill: rgb(255,255,255); fill-opacity: 1.0\" clip-path=\"url(#_1490885590807769clip-0)\"/><g ><text x=\"7\" y=\"69.11\" style=\"fill: rgb(0,0,0); fill-opacity: 1.0; font-family: sans-serif; font-size: 8px;\" clip-path=\"url(#_1490885590807769clip-0)\">00:00:00</text></g><g ><text x=\"109.73\" y=\"69.11\" style=\"fill: rgb(0,0,0); fill-opacity: 1.0; font-family: sans-serif; font-size: 8px;\" clip-path=\"url(#_1490885590807769clip-0)\">00:01:00</text></g><g ><text x=\"10\" y=\"56.11\" style=\"fill: rgb(0,0,0); fill-opacity: 1.0; font-family: sans-serif; font-size: 8px;\" clip-path=\"url(#_1490885590807769clip-0)\">0</text></g><g ><text x=\"10\" y=\"13.26\" style=\"fill: rgb(0,0,0); fill-opacity: 1.0; font-family: sans-serif; font-size: 8px;\" clip-path=\"url(#_1490885590807769clip-0)\">1</text></g><g style=\"stroke-width: 2.0;stroke: rgb(73,137,214);stroke-opacity: 1.0;stroke-linecap: square;shape-rendering:geometricPrecision;; fill: none\" clip-path=\"url(#_1490885590807769clip-1)\"><path d=\"M 25 10.14 L 42.12 10.14 L 59.24 10.14 L 76.36 10.14 L 93.48 10.14 L 110.61 10.14 L 127.73 53\"/></g></svg>","testResultSlaState":"FINISHED","slaResults":{"slaGroupList":[{"type":"GENERAL_TEST_SLA","targetType":"TEST","slaList":[{"restrictionType":"AVERAGE","fromDate":4,"toDate":45,"operation":"LESS_EQUALS","value":5.0,"result":0.27,"status":"SUCCESS"},{"restrictionType":"ERROR_RATE","fromDate":0,"toDate":60,"operation":"LESS_EQUALS","value":5.0,"result":0.0,"status":"SUCCESS"},{"restrictionType":"THROUGHPUT","fromDate":2,"toDate":60,"operation":"LESS_EQUALS","value":5.0,"result":0.12,"status":"SUCCESS"}]},{"type":"THREAD_GROUP_SLA","targetType":"THREAD_GROUP","slaList":[{"restrictionType":"ERROR_RATE","fromDate":10,"toDate":49,"operation":"LESS_EQUALS","value":5.0,"result":0.0,"status":"SUCCESS"},{"restrictionType":"THROUGHPUT","fromDate":0,"toDate":60,"operation":"LESS_EQUALS","value":5.0,"result":0.12,"status":"SUCCESS"}],"threadGroupName":"random_22","threadGroupId":"8b57e67b-cb2c-4ac8-9abd-9224c221a178"},{"type":"TRANSACTION_SLA","targetType":"TRANSACTION","slaList":[{"restrictionType":"ERROR_RATE","fromDate":9,"toDate":53,"operation":"LESS_EQUALS","value":5.0,"result":0.0,"status":"SUCCESS"},{"restrictionType":"THROUGHPUT","fromDate":0,"toDate":60,"operation":"LESS_EQUALS","value":5.0,"result":0.13,"status":"SUCCESS"}],"transactionName":"Random_Transaction_1","transactionId":"78a6c266-ec69-412c-93df-a68ed79b50a9","threadGroupName":"random_22","threadGroupId":"8b57e67b-cb2c-4ac8-9abd-9224c221a178"},{"type":"REQUEST_SLA","targetType":"REQUEST","slaList":[{"restrictionType":"ERROR_RATE","fromDate":6,"toDate":56,"operation":"LESS_EQUALS","value":5.0,"result":0.0,"status":"SUCCESS"}],"requestName":"https://webtours.pflb.ru/WebTours/","transactionFilterType":"ANY_TRANSACTION","transactionName":null,"transactionId":null,"threadGroupName":null,"threadGroupId":null},{"type":"REQUEST_SLA","targetType":"REQUEST","slaList":[{"restrictionType":"THROUGHPUT","fromDate":0,"toDate":60,"operation":"LESS_EQUALS","value":5.0,"result":0.12,"status":"SUCCESS"}],"requestName":"https://webtours.pflb.ru/WebTours/","transactionFilterType":"ANY_TRANSACTION","transactionName":null,"transactionId":null,"threadGroupName":"random_22","threadGroupId":"8b57e67b-cb2c-4ac8-9abd-9224c221a178"},{"type":"SYSTEM_METRICS_HOST","targetType":"SYSTEM_METRICS_HOST","slaList":[{"restrictionType":"MEMORY_USAGE_PERCENT_AVERAGE","fromDate":0,"toDate":60,"operation":"LESS_EQUALS","value":80.0,"result":null,"status":"NOT_COUNTED"},{"restrictionType":"CPU_USAGE_PERCENT_AVERAGE","fromDate":0,"toDate":60,"operation":"LESS_EQUALS","value":80.0,"result":null,"status":"NOT_COUNTED"}],"hostname":"https://webtours.pflb.ru/WebTours/"}],"status":"FAILURE"},"testResultFilesState":"FINISHED"},"testError":null},{"id":9146,"testProjectId":7566,"testProjectVersionId":8647,"testMode":"TEST","state":"FINISHED","displayState":"FINISHED","userId":5881,"userEmail":"nagruzka3_gr01@mail.com","teamId":25,"createDate":"2025-05-21T14:10:10.500Z","startDate":"2025-05-21T14:10:21.829Z","endDate":"2025-05-21T14:11:19.487Z","comment":"","labelSet":[],"testProject":{"id":7566,"projectName":"hadouken_test_666","settingsId":null,"comment":null,"lastModified":null,"contentFormat":null,"contentModelVersion":null,"labelSet":null,"testType":null,"requestCount":null,"totalDuration":null,"version":null},"testProjectVersion":{"id":8647,"projectId":7566,"settingsId":null,"createdOn":1747829875.690000000,"location":"boomq/teams/25/projects/7566/v_8647.yaml","comment":"","contentFormat":"yaml","contentModelVersion":"2.0.0","testType":"STABLE","requestCount":1,"totalDuration":60,"versionNumber":1},"testResult":{"testId":9146,"usersChartSvg":"<svg xmlns=\"http://www.w3.org/2000/svg\" xmlns:xlink=\"http://www.w3.org/1999/xlink\" xmlns:jfreesvg=\"http://www.jfree.org/jfreesvg/svg\" width=\"150\" height=\"75\" text-rendering=\"auto\" shape-rendering=\"auto\">\n<defs><clipPath id=\"_1490870601965342clip-0\"><path d=\"M 0 0 L 150 0 L 150 75 L 0 75 L 0 0 Z \"/></clipPath>\n<clipPath id=\"_1490870601965342clip-1\"><path d=\"M 25 8 L 25 53 L 138 53 L 138 8 Z \"/></clipPath>\n</defs>\n<rect x=\"0\" y=\"0\" width=\"150\" height=\"75\" style=\"fill: rgb(255,255,255); fill-opacity: 1.0\" clip-path=\"url(#_1490870601965342clip-0)\"/><rect x=\"25\" y=\"8\" width=\"113\" height=\"45\" style=\"fill: rgb(255,255,255); fill-opacity: 1.0\" clip-path=\"url(#_1490870601965342clip-0)\"/><g ><text x=\"7\" y=\"69.11\" style=\"fill: rgb(0,0,0); fill-opacity: 1.0; font-family: sans-serif; font-size: 8px;\" clip-path=\"url(#_1490870601965342clip-0)\">00:00:00</text></g><g ><text x=\"109.73\" y=\"69.11\" style=\"fill: rgb(0,0,0); fill-opacity: 1.0; font-family: sans-serif; font-size: 8px;\" clip-path=\"url(#_1490870601965342clip-0)\">00:00:50</text></g><g ><text x=\"10\" y=\"56.11\" style=\"fill: rgb(0,0,0); fill-opacity: 1.0; font-family: sans-serif; font-size: 8px;\" clip-path=\"url(#_1490870601965342clip-0)\">0</text></g><g ><text x=\"10\" y=\"13.26\" style=\"fill: rgb(0,0,0); fill-opacity: 1.0; font-family: sans-serif; font-size: 8px;\" clip-path=\"url(#_1490870601965342clip-0)\">1</text></g><g style=\"stroke-width: 2.0;stroke: rgb(73,137,214);stroke-opacity: 1.0;stroke-linecap: square;shape-rendering:geometricPrecision;; fill: none\" clip-path=\"url(#_1490870601965342clip-1)\"><path d=\"M 25 10.14 L 45.55 10.14 L 66.09 10.14 L 86.64 10.14 L 107.18 10.14 L 127.73 53\"/></g></svg>","testResultSlaState":"FINISHED","slaResults":{"slaGroupList":[{"type":"GENERAL_TEST_SLA","targetType":"TEST","slaList":[{"restrictionType":"AVERAGE","fromDate":6,"toDate":46,"operation":"LESS_EQUALS","value":123.0,"result":0.29,"status":"SUCCESS"},{"restrictionType":"ERROR_RATE","fromDate":10,"toDate":53,"operation":"LESS_EQUALS","value":33.0,"result":0.0,"status":"SUCCESS"}]},{"type":"THREAD_GROUP_SLA","targetType":"THREAD_GROUP","slaList":[{"restrictionType":"AVERAGE","fromDate":4,"toDate":54,"operation":"LESS_EQUALS","value":778.0,"result":0.28,"status":"SUCCESS"}],"threadGroupName":"random_test","threadGroupId":"2e6ba5cb-5c2c-4df6-bd3e-8d7a1ed15cc3"},{"type":"TRANSACTION_SLA","targetType":"TRANSACTION","slaList":[{"restrictionType":"AVERAGE","fromDate":13,"toDate":51,"operation":"LESS_EQUALS","value":6.0,"result":0.24,"status":"SUCCESS"}],"transactionName":"random_transaction_666","transactionId":"ab427d86-711c-49dd-b889-7ae727e22e53","threadGroupName":null,"threadGroupId":null},{"type":"REQUEST_SLA","targetType":"REQUEST","slaList":[{"restrictionType":"AVERAGE","fromDate":8,"toDate":53,"operation":"LESS_EQUALS","value":7.0,"result":0.28,"status":"SUCCESS"}],"requestName":"https://webtours.pflb.ru/WebTours/","transactionFilterType":"ANY_TRANSACTION","transactionName":null,"transactionId":null,"threadGroupName":null,"threadGroupId":null}],"status":"SUCCESS"},"testResultFilesState":"FINISHED"},"testError":null},{"id":9145,"testProjectId":7571,"testProjectVersionId":8653,"testMode":"TEST","state":"FINISHED","displayState":"FINISHED","userId":5881,"userEmail":"nagruzka3_gr01@mail.com","teamId":25,"createDate":"2025-05-21T13:44:32.084Z","startDate":"2025-05-21T13:44:43.317Z","endDate":"2025-05-21T13:45:41.273Z","comment":"","labelSet":[],"testProject":{"id":7571,"projectName":"hadouken_test_888","settingsId":null,"comment":null,"lastModified":null,"contentFormat":null,"contentModelVersion":null,"labelSet":null,"testType":null,"requestCount":null,"totalDuration":null,"version":null},"testProjectVersion":{"id":8653,"projectId":7571,"settingsId":null,"createdOn":1747833275.416000000,"location":"boomq/teams/25/projects/7571/v_8653.yaml","comment":"","contentFormat":"yaml","contentModelVersion":"2.0.0","testType":"STABLE","requestCount":1,"totalDuration":60,"versionNumber":1},"testResult":{"testId":9145,"usersChartSvg":"<svg xmlns=\"http://www.w3.org/2000/svg\" xmlns:xlink=\"http://www.w3.org/1999/xlink\" xmlns:jfreesvg=\"http://www.jfree.org/jfreesvg/svg\" width=\"150\" height=\"75\" text-rendering=\"auto\" shape-rendering=\"auto\">\n<defs><clipPath id=\"_1489339829424099clip-0\"><path d=\"M 0 0 L 150 0 L 150 75 L 0 75 L 0 0 Z \"/></clipPath>\n<clipPath id=\"_1489339829424099clip-1\"><path d=\"M 25 8 L 25 53 L 138 53 L 138 8 Z \"/></clipPath>\n</defs>\n<rect x=\"0\" y=\"0\" width=\"150\" height=\"75\" style=\"fill: rgb(255,255,255); fill-opacity: 1.0\" clip-path=\"url(#_1489339829424099clip-0)\"/><rect x=\"25\" y=\"8\" width=\"113\" height=\"45\" style=\"fill: rgb(255,255,255); fill-opacity: 1.0\" clip-path=\"url(#_1489339829424099clip-0)\"/><g ><text x=\"7\" y=\"69.11\" style=\"fill: rgb(0,0,0); fill-opacity: 1.0; font-family: sans-serif; font-size: 8px;\" clip-path=\"url(#_1489339829424099clip-0)\">00:00:00</text></g><g ><text x=\"109.73\" y=\"69.11\" style=\"fill: rgb(0,0,0); fill-opacity: 1.0; font-family: sans-serif; font-size: 8px;\" clip-path=\"url(#_1489339829424099clip-0)\">00:01:00</text></g><g ><text x=\"10\" y=\"56.11\" style=\"fill: rgb(0,0,0); fill-opacity: 1.0; font-family: sans-serif; font-size: 8px;\" clip-path=\"url(#_1489339829424099clip-0)\">0</text></g><g ><text x=\"10\" y=\"13.26\" style=\"fill: rgb(0,0,0); fill-opacity: 1.0; font-family: sans-serif; font-size: 8px;\" clip-path=\"url(#_1489339829424099clip-0)\">1</text></g><g style=\"stroke-width: 2.0;stroke: rgb(73,137,214);stroke-opacity: 1.0;stroke-linecap: square;shape-rendering:geometricPrecision;; fill: none\" clip-path=\"url(#_1489339829424099clip-1)\"><path d=\"M 25 10.14 L 42.12 10.14 L 59.24 10.14 L 76.36 10.14 L 93.48 10.14 L 110.61 10.14 L 127.73 53\"/></g></svg>","testResultSlaState":"FINISHED","slaResults":{"slaGroupList":[{"type":"GENERAL_TEST_SLA","targetType":"TEST","slaList":[{"restrictionType":"AVERAGE","fromDate":6,"toDate":46,"operation":"LESS_EQUALS","value":123.0,"result":0.33,"status":"SUCCESS"},{"restrictionType":"ERROR_RATE","fromDate":10,"toDate":53,"operation":"LESS_EQUALS","value":33.0,"result":0.0,"status":"SUCCESS"}]},{"type":"THREAD_GROUP_SLA","targetType":"THREAD_GROUP","slaList":[{"restrictionType":"AVERAGE","fromDate":4,"toDate":54,"operation":"LESS_EQUALS","value":778.0,"result":0.32,"status":"SUCCESS"}],"threadGroupName":"random_test","threadGroupId":"2e6ba5cb-5c2c-4df6-bd3e-8d7a1ed15cc3"},{"type":"TRANSACTION_SLA","targetType":"TRANSACTION","slaList":[{"restrictionType":"AVERAGE","fromDate":13,"toDate":51,"operation":"LESS_EQUALS","value":6.0,"result":0.28,"status":"SUCCESS"}],"transactionName":"random_transaction_666","transactionId":"ab427d86-711c-49dd-b889-7ae727e22e53","threadGroupName":null,"threadGroupId":null},{"type":"REQUEST_SLA","targetType":"REQUEST","slaList":[{"restrictionType":"AVERAGE","fromDate":8,"toDate":53,"operation":"LESS_EQUALS","value":7.0,"result":0.32,"status":"SUCCESS"}],"requestName":"https://webtours.pflb.ru/WebTours/","transactionFilterType":"ANY_TRANSACTION","transactionName":null,"transactionId":null,"threadGroupName":null,"threadGroupId":null}],"status":"SUCCESS"},"testResultFilesState":"FINISHED"},"testError":null},{"id":9144,"testProjectId":7571,"testProjectVersionId":8653,"testMode":"TEST","state":"FINISHED","displayState":"FINISHED","userId":5881,"userEmail":"nagruzka3_gr01@mail.com","teamId":25,"createDate":"2025-05-21T13:42:15.021Z","startDate":"2025-05-21T13:42:26.197Z","endDate":"2025-05-21T13:43:24.138Z","comment":"","labelSet":[],"testProject":{"id":7571,"projectName":"hadouken_test_888","settingsId":null,"comment":null,"lastModified":null,"contentFormat":null,"contentModelVersion":null,"labelSet":null,"testType":null,"requestCount":null,"totalDuration":null,"version":null},"testProjectVersion":{"id":8653,"projectId":7571,"settingsId":null,"createdOn":1747833275.416000000,"location":"boomq/teams/25/projects/7571/v_8653.yaml","comment":"","contentFormat":"yaml","contentModelVersion":"2.0.0","testType":"STABLE","requestCount":1,"totalDuration":60,"versionNumber":1},"testResult":{"testId":9144,"usersChartSvg":"<svg xmlns=\"http://www.w3.org/2000/svg\" xmlns:xlink=\"http://www.w3.org/1999/xlink\" xmlns:jfreesvg=\"http://www.jfree.org/jfreesvg/svg\" width=\"150\" height=\"75\" text-rendering=\"auto\" shape-rendering=\"auto\">\n<defs><clipPath id=\"_1489204724440522clip-0\"><path d=\"M 0 0 L 150 0 L 150 75 L 0 75 L 0 0 Z \"/></clipPath>\n<clipPath id=\"_1489204724440522clip-1\"><path d=\"M 25 8 L 25 53 L 138 53 L 138 8 Z \"/></clipPath>\n</defs>\n<rect x=\"0\" y=\"0\" width=\"150\" height=\"75\" style=\"fill: rgb(255,255,255); fill-opacity: 1.0\" clip-path=\"url(#_1489204724440522clip-0)\"/><rect x=\"25\" y=\"8\" width=\"113\" height=\"45\" style=\"fill: rgb(255,255,255); fill-opacity: 1.0\" clip-path=\"url(#_1489204724440522clip-0)\"/><g ><text x=\"7\" y=\"69.11\" style=\"fill: rgb(0,0,0); fill-opacity: 1.0; font-family: sans-serif; font-size: 8px;\" clip-path=\"url(#_1489204724440522clip-0)\">00:00:00</text></g><g ><text x=\"109.73\" y=\"69.11\" style=\"fill: rgb(0,0,0); fill-opacity: 1.0; font-family: sans-serif; font-size: 8px;\" clip-path=\"url(#_1489204724440522clip-0)\">00:01:00</text></g><g ><text x=\"10\" y=\"56.11\" style=\"fill: rgb(0,0,0); fill-opacity: 1.0; font-family: sans-serif; font-size: 8px;\" clip-path=\"url(#_1489204724440522clip-0)\">0</text></g><g ><text x=\"10\" y=\"13.26\" style=\"fill: rgb(0,0,0); fill-opacity: 1.0; font-family: sans-serif; font-size: 8px;\" clip-path=\"url(#_1489204724440522clip-0)\">1</text></g><g style=\"stroke-width: 2.0;stroke: rgb(73,137,214);stroke-opacity: 1.0;stroke-linecap: square;shape-rendering:geometricPrecision;; fill: none\" clip-path=\"url(#_1489204724440522clip-1)\"><path d=\"M 25 53 L 42.12 10.14 L 59.24 10.14 L 76.36 10.14 L 93.48 10.14 L 110.61 10.14 L 127.73 53\"/></g></svg>","testResultSlaState":"FINISHED","slaResults":{"slaGroupList":[{"type":"GENERAL_TEST_SLA","targetType":"TEST","slaList":[{"restrictionType":"AVERAGE","fromDate":6,"toDate":46,"operation":"LESS_EQUALS","value":123.0,"result":0.33,"status":"SUCCESS"},{"restrictionType":"ERROR_RATE","fromDate":10,"toDate":53,"operation":"LESS_EQUALS","value":33.0,"result":0.0,"status":"SUCCESS"}]},{"type":"THREAD_GROUP_SLA","targetType":"THREAD_GROUP","slaList":[{"restrictionType":"AVERAGE","fromDate":4,"toDate":54,"operation":"LESS_EQUALS","value":778.0,"result":0.32,"status":"SUCCESS"}],"threadGroupName":"random_test","threadGroupId":"2e6ba5cb-5c2c-4df6-bd3e-8d7a1ed15cc3"},{"type":"TRANSACTION_SLA","targetType":"TRANSACTION","slaList":[{"restrictionType":"AVERAGE","fromDate":13,"toDate":51,"operation":"LESS_EQUALS","value":6.0,"result":0.28,"status":"SUCCESS"}],"transactionName":"random_transaction_666","transactionId":"ab427d86-711c-49dd-b889-7ae727e22e53","threadGroupName":null,"threadGroupId":null},{"type":"REQUEST_SLA","targetType":"REQUEST","slaList":[{"restrictionType":"AVERAGE","fromDate":8,"toDate":53,"operation":"LESS_EQUALS","value":7.0,"result":0.32,"status":"SUCCESS"}],"requestName":"https://webtours.pflb.ru/WebTours/","transactionFilterType":"ANY_TRANSACTION","transactionName":null,"transactionId":null,"threadGroupName":null,"threadGroupId":null}],"status":"SUCCESS"},"testResultFilesState":"FINISHED"},"testError":null},{"id":9143,"testProjectId":7568,"testProjectVersionId":8650,"testMode":"TEST","state":"FINISHED","displayState":"FINISHED","userId":5881,"userEmail":"nagruzka3_gr01@mail.com","teamId":25,"createDate":"2025-05-21T13:36:37.065Z","startDate":"2025-05-21T13:36:48.210Z","endDate":"2025-05-21T13:37:46.092Z","comment":"","labelSet":[],"testProject":{"id":7568,"projectName":"hadouken_test_666","settingsId":null,"comment":null,"lastModified":null,"contentFormat":null,"contentModelVersion":null,"labelSet":null,"testType":null,"requestCount":null,"totalDuration":null,"version":null},"testProjectVersion":{"id":8650,"projectId":7568,"settingsId":null,"createdOn":1747832427.885000000,"location":"boomq/teams/25/projects/7568/v_8650.yaml","comment":"","contentFormat":"yaml","contentModelVersion":"2.0.0","testType":"STABLE","requestCount":1,"totalDuration":60,"versionNumber":1},"testResult":{"testId":9143,"usersChartSvg":"<svg xmlns=\"http://www.w3.org/2000/svg\" xmlns:xlink=\"http://www.w3.org/1999/xlink\" xmlns:jfreesvg=\"http://www.jfree.org/jfreesvg/svg\" width=\"150\" height=\"75\" text-rendering=\"auto\" shape-rendering=\"auto\">\n<defs><clipPath id=\"_1488859538266042clip-0\"><path d=\"M 0 0 L 150 0 L 150 75 L 0 75 L 0 0 Z \"/></clipPath>\n<clipPath id=\"_1488859538266042clip-1\"><path d=\"M 25 8 L 25 53 L 138 53 L 138 8 Z \"/></clipPath>\n</defs>\n<rect x=\"0\" y=\"0\" width=\"150\" height=\"75\" style=\"fill: rgb(255,255,255); fill-opacity: 1.0\" clip-path=\"url(#_1488859538266042clip-0)\"/><rect x=\"25\" y=\"8\" width=\"113\" height=\"45\" style=\"fill: rgb(255,255,255); fill-opacity: 1.0\" clip-path=\"url(#_1488859538266042clip-0)\"/><g ><text x=\"7\" y=\"69.11\" style=\"fill: rgb(0,0,0); fill-opacity: 1.0; font-family: sans-serif; font-size: 8px;\" clip-path=\"url(#_1488859538266042clip-0)\">00:00:00</text></g><g ><text x=\"109.73\" y=\"69.11\" style=\"fill: rgb(0,0,0); fill-opacity: 1.0; font-family: sans-serif; font-size: 8px;\" clip-path=\"url(#_1488859538266042clip-0)\">00:01:00</text></g><g ><text x=\"10\" y=\"56.11\" style=\"fill: rgb(0,0,0); fill-opacity: 1.0; font-family: sans-serif; font-size: 8px;\" clip-path=\"url(#_1488859538266042clip-0)\">0</text></g><g ><text x=\"10\" y=\"13.26\" style=\"fill: rgb(0,0,0); fill-opacity: 1.0; font-family: sans-serif; font-size: 8px;\" clip-path=\"url(#_1488859538266042clip-0)\">1</text></g><g style=\"stroke-width: 2.0;stroke: rgb(73,137,214);stroke-opacity: 1.0;stroke-linecap: square;shape-rendering:geometricPrecision;; fill: none\" clip-path=\"url(#_1488859538266042clip-1)\"><path d=\"M 25 53 L 42.12 10.14 L 59.24 10.14 L 76.36 10.14 L 93.48 10.14 L 110.61 10.14 L 127.73 53\"/></g></svg>","testResultSlaState":"FINISHED","slaResults":{"slaGroupList":[{"type":"GENERAL_TEST_SLA","targetType":"TEST","slaList":[{"restrictionType":"AVERAGE","fromDate":6,"toDate":46,"operation":"LESS_EQUALS","value":123.0,"result":0.3,"status":"SUCCESS"},{"restrictionType":"ERROR_RATE","fromDate":10,"toDate":53,"operation":"LESS_EQUALS","value":33.0,"result":0.0,"status":"SUCCESS"}]},{"type":"THREAD_GROUP_SLA","targetType":"THREAD_GROUP","slaList":[{"restrictionType":"AVERAGE","fromDate":4,"toDate":54,"operation":"LESS_EQUALS","value":778.0,"result":0.29,"status":"SUCCESS"}],"threadGroupName":"random_test","threadGroupId":"2e6ba5cb-5c2c-4df6-bd3e-8d7a1ed15cc3"},{"type":"TRANSACTION_SLA","targetType":"TRANSACTION","slaList":[{"restrictionType":"AVERAGE","fromDate":13,"toDate":51,"operation":"LESS_EQUALS","value":6.0,"result":0.26,"status":"SUCCESS"}],"transactionName":"random_transaction_666","transactionId":"ab427d86-711c-49dd-b889-7ae727e22e53","threadGroupName":null,"threadGroupId":null},{"type":"REQUEST_SLA","targetType":"REQUEST","slaList":[{"restrictionType":"AVERAGE","fromDate":8,"toDate":53,"operation":"LESS_EQUALS","value":7.0,"result":0.29,"status":"SUCCESS"}],"requestName":"https://webtours.pflb.ru/WebTours/","transactionFilterType":"ANY_TRANSACTION","transactionName":null,"transactionId":null,"threadGroupName":null,"threadGroupId":null}],"status":"SUCCESS"},"testResultFilesState":"FINISHED"},"testError":null}],"pageable":{"sort":{"sorted":true,"unsorted":false,"empty":false},"pageNumber":0,"pageSize":7,"offset":0,"paged":true,"unpaged":false},"last":false,"totalElements":54,"totalPages":8,"first":true,"sort":{"sorted":true,"unsorted":false,"empty":false},"numberOfElements":7,"size":7,"number":0,"empty":false}