{"content":[{"id":7587,"projectName":"group_3_5800","settingsId":null,"comment":"","lastModified":"2025-05-21T14:10:10","contentFormat":"yaml","contentModelVersion":null,"labelSet":[],"testType":"STABLE","requestCount":1,"totalDuration":60,"version":[{"id":8672,"projectId":7587,"settingsId":null,"createdOn":"2025-05-21T14:10:10.373Z","location":"boomq/teams/25/projects/7587/v_8672.yaml","comment":"","contentFormat":"yaml","contentModelVersion":"2.0.0","testType":"STABLE","requestCount":1,"totalDuration":60,"versionNumber":1}]},{"id":7586,"projectName":"group_3_5395","settingsId":null,"comment":"","lastModified":"2025-05-21T14:08:07","contentFormat":"yaml","contentModelVersion":null,"labelSet":[],"testType":"STABLE","requestCount":1,"totalDuration":60,"version":[{"id":8671,"projectId":7586,"settingsId":null,"createdOn":"2025-05-21T14:08:07.564Z","location":"boomq/teams/25/projects/7586/v_8671.yaml","comment":"","contentFormat":"yaml","contentModelVersion":"2.0.0","testType":"STABLE","requestCount":1,"totalDuration":60,"versionNumber":1}]},{"id":7585,"projectName":"group_3_4902","settingsId":null,"comment":"","lastModified":"2025-05-21T14:05:37","contentFormat":"yaml","contentModelVersion":null,"labelSet":[],"testType":"STABLE","requestCount":1,"totalDuration":60,"version":[{"id":8670,"projectId":7585,"settingsId":null,"createdOn":"2025-05-21T14:05:37.064Z","location":"boomq/teams/25/projects/7585/v_8670.yaml","comment":"","contentFormat":"yaml","contentModelVersion":"2.0.0","testType":"STABLE","requestCount":1,"totalDuration":60,"versionNumber":1}]},{"id":7584,"projectName":"group_3_2619","settingsId":null,"comment":"","lastModified":"2025-05-21T13:53:56","contentFormat":"yaml","contentModelVersion":null,"labelSet":[],"testType":"STABLE","requestCount":1,"totalDuration":60,"version":[{"id":8669,"projectId":7584,"settingsId":null,"createdOn":"2025-05-21T13:53:56.750Z","location":"boomq/teams/25/projects/7584/v_8669.yaml","comment":"","contentFormat":"yaml","contentModelVersion":"2.0.0","testType":"STABLE","requestCount":1,"totalDuration":60,"versionNumber":1}]},{"id":7583,"projectName":"group_3_1705","settingsId":null,"comment":"","lastModified":"2025-05-21T13:49:17","contentFormat":"yaml","contentModelVersion":null,"labelSet":[],"testType":"STABLE","requestCount":1,"totalDuration":60,"version":[{"id":8668,"projectId":7583,"settingsId":null,"createdOn":"2025-05-21T13:49:17.837Z","location":"boomq/teams/25/projects/7583/v_8668.yaml","comment":"","contentFormat":"yaml","contentModelVersion":"2.0.0","testType":"STABLE","requestCount":1,"totalDuration":60,"versionNumber":1}]},{"id":7582,"projectName":"group_3_432","settingsId":null,"comment":"","lastModified":"2025-05-21T13:47:22","contentFormat":"yaml","contentModelVersion":null,"labelSet":[],"testType":"STABLE","requestCount":1,"totalDuration":60,"version":[{"id":8667,"projectId":7582,"settingsId":null,"createdOn":"2025-05-21T13:47:22.396Z","location":"boomq/teams/25/projects/7582/v_8667.yaml","comment":"","contentFormat":"yaml","contentModelVersion":"2.0.0","testType":"STABLE","requestCount":1,"totalDuration":60,"versionNumber":1}]},{"id":7581,"projectName":"test_16:42","settingsId":null,"comment":"","lastModified":"2025-05-21T13:44:08","contentFormat":"yaml","contentModelVersion":null,"labelSet":[],"testType":"STABLE","requestCount":1,"totalDuration":60,"version":[{"id":8666,"projectId":7581,"settingsId":null,"createdOn":"2025-05-21T13:44:08.365Z","location":"boomq/teams/25/projects/7581/v_8666.yaml","comment":"","contentFormat":"yaml","contentModelVersion":"2.0.0","testType":"STABLE","requestCount":1,"totalDuration":60,"versionNumber":1}]},{"id":7580,"projectName":"group_3_339","settingsId":null,"comment":"","lastModified":"2025-05-21T13:40:26","contentFormat":"yaml","contentModelVersion":null,"labelSet":[],"testType":"STABLE","requestCount":1,"totalDuration":60,"version":[{"id":8665,"projectId":7580,"settingsId":null,"createdOn":"2025-05-21T13:40:26.043Z","location":"boomq/teams/25/projects/7580/v_8665.yaml","comment":"","contentFormat":"yaml","contentModelVersion":"2.0.0","testType":"STABLE","requestCount":1,"totalDuration":60,"versionNumber":1}]},{"id":7579,"projectName":"group_3_188","settingsId":null,"comment":"","lastModified":"2025-05-21T13:39:40","contentFormat":"yaml","contentModelVersion":null,"labelSet":[],"testType":"STABLE","requestCount":1,"totalDuration":60,"version":[{"id":8664,"projectId":7579,"settingsId":null,"createdOn":"2025-05-21T13:39:40.894Z","location":"boomq/teams/25/projects/7579/v_8664.yaml","comment":"","contentFormat":"yaml","contentModelVersion":"2.0.0","testType":"STABLE","requestCount":1,"totalDuration":60,"versionNumber":1}]}],"pageable":{"sort":{"sorted":true,"unsorted":false,"empty":false},"pageNumber":0,"pageSize":9,"offset":0,"paged":true,"unpaged":false},"totalElements":70,"totalPages":8,"last":false,"first":true,"sort":{"sorted":true,"unsorted":false,"empty":false},"numberOfElements":9,"size":9,"number":0,"empty":false}