{"content":[{"id":2075,"teamId":22,"userId":1989,"email":"user_7@d0m3n.net","userDisplayName":"user_7","permissionList":["VIEW","EDIT","RUN"],"invitationStatus":"ACCEPTED","inviteUrl":null,"expiredAt":null,"createAt":"2025-05-22T13:04:29.775Z","updatedAt":"2025-05-22T13:04:30.024Z"},{"id":2003,"teamId":22,"userId":1,"email":"admin@boomq.io","userDisplayName":null,"permissionList":["ADMIN"],"invitationStatus":"ACCEPTED","inviteUrl":null,"expiredAt":null,"createAt":"2025-05-22T10:28:12.333Z","updatedAt":"2025-05-22T10:28:12.333Z"},{"id":2076,"teamId":22,"userId":1990,"email":"Nik2585@example.com","userDisplayName":"Nik2585","permissionList":["VIEW","EDIT","RUN"],"invitationStatus":"ACCEPTED","inviteUrl":null,"expiredAt":null,"createAt":"2025-05-22T13:07:35.317Z","updatedAt":"2025-05-22T13:07:35.632Z"},{"id":2007,"teamId":22,"userId":1922,"email":"nagruzka3gr3@mail.com","userDisplayName":"nagruzka3gr3","permissionList":["ADMIN","VIEW","EDIT","MANAGE_USERS_IN_ORG","RUN"],"invitationStatus":"ACCEPTED","inviteUrl":null,"expiredAt":null,"createAt":"2025-05-22T10:29:53.008Z","updatedAt":"2025-05-22T10:29:57.362Z"},{"id":2009,"teamId":22,"userId":1924,"email":"roman_tester_01@mail.com","userDisplayName":"Roman_tester_01","permissionList":["VIEW","EDIT","RUN"],"invitationStatus":"ACCEPTED","inviteUrl":null,"expiredAt":null,"createAt":"2025-05-22T10:30:57.592Z","updatedAt":"2025-05-22T10:31:01.323Z"},{"id":2011,"teamId":22,"userId":1926,"email":"roman_tester_03@mail.com","userDisplayName":"roman_tester_03","permissionList":["VIEW","EDIT","RUN"],"invitationStatus":"ACCEPTED","inviteUrl":null,"expiredAt":null,"createAt":"2025-05-22T10:32:22.086Z","updatedAt":"2025-05-22T10:32:28.448Z"},{"id":2010,"teamId":22,"userId":1925,"email":"roman_tester_02@mail.com","userDisplayName":"roman_tester_02","permissionList":["VIEW","EDIT","RUN"],"invitationStatus":"ACCEPTED","inviteUrl":null,"expiredAt":null,"createAt":"2025-05-22T10:31:37.322Z","updatedAt":"2025-05-22T10:31:41.656Z"},{"id":2013,"teamId":22,"userId":1928,"email":"sadasdas@gmail.com","userDisplayName":"xdasdasda","permissionList":["VIEW","EDIT","RUN"],"invitationStatus":"WAITING_FOR_ACCEPTANCE","inviteUrl":"/auth-srv/invite/G8M-eM9fQ_Yki7xqUdDJ6EA0_mIDB0tPYALp5wlJWF3hdGw4VINTwinwo9xlIUTfT_zy9-X92UrVr3PPddFAfkZr2f4EJsVlmWKS4IBpYTY=","expiredAt":"2025-05-23T10:34:26.431Z","createAt":"2025-05-22T10:34:14.812Z","updatedAt":"2025-05-22T10:34:26.434Z"},{"id":2012,"teamId":22,"userId":1927,"email":"test_869@hadouken.com","userDisplayName":"Test_869","permissionList":["VIEW","EDIT","RUN"],"invitationStatus":"ACCEPTED","inviteUrl":null,"expiredAt":null,"createAt":"2025-05-22T10:33:24.944Z","updatedAt":"2025-05-22T10:33:25.208Z"},{"id":2014,"teamId":22,"userId":1929,"email":"test_443@hadouken.com","userDisplayName":"Test_443","permissionList":["VIEW","EDIT","RUN"],"invitationStatus":"ACCEPTED","inviteUrl":null,"expiredAt":null,"createAt":"2025-05-22T10:35:49.558Z","updatedAt":"2025-05-22T10:35:49.826Z"},{"id":2050,"teamId":22,"userId":1964,"email":"Nik4513@example.com","userDisplayName":"Nik4513","permissionList":["VIEW","EDIT","RUN"],"invitationStatus":"ACCEPTED","inviteUrl":null,"expiredAt":null,"createAt":"2025-05-22T12:26:23.071Z","updatedAt":"2025-05-22T12:26:23.447Z"},{"id":2045,"teamId":22,"userId":1959,"email":"Nik1074@example.com","userDisplayName":"Nik1074","permissionList":["VIEW","EDIT","RUN"],"invitationStatus":"ACCEPTED","inviteUrl":null,"expiredAt":null,"createAt":"2025-05-22T12:08:49.800Z","updatedAt":"2025-05-22T12:08:50.140Z"}],"pageable":{"sort":{"sorted":false,"unsorted":true,"empty":true},"pageNumber":0,"pageSize":12,"offset":0,"unpaged":false,"paged":true},"last":false,"totalElements":24,"totalPages":2,"first":true,"sort":{"sorted":false,"unsorted":true,"empty":true},"numberOfElements":12,"size":12,"number":0,"empty":false}