{"content":[{"id":6028,"teamId":25,"userId":5889,"email":"test01@test.com","userDisplayName":"test01","permissionList":["EDIT","VIEW","RUN"],"invitationStatus":"ACCEPTED","inviteUrl":null,"expiredAt":null,"createAt":"2025-05-19T14:10:30.314Z","updatedAt":"2025-05-19T14:11:57.652Z"},{"id":6016,"teamId":25,"userId":1,"email":"admin@boomq.io","userDisplayName":null,"permissionList":["ADMIN"],"invitationStatus":"ACCEPTED","inviteUrl":null,"expiredAt":null,"createAt":"2025-05-19T07:03:46.655Z","updatedAt":"2025-05-19T07:03:46.655Z"},{"id":6017,"teamId":25,"userId":5881,"email":"nagruzka3_gr01@mail.com","userDisplayName":"nagruzka3_gr01","permissionList":["EDIT","ADMIN","VIEW","MANAGE_USERS_IN_ORG","RUN"],"invitationStatus":"ACCEPTED","inviteUrl":null,"expiredAt":null,"createAt":"2025-05-19T07:04:16.658Z","updatedAt":"2025-05-19T07:04:21.200Z"},{"id":6018,"teamId":25,"userId":5882,"email":"test_test01@mail.com","userDisplayName":"test_test01","permissionList":["EDIT","VIEW","RUN"],"invitationStatus":"ACCEPTED","inviteUrl":null,"expiredAt":null,"createAt":"2025-05-19T08:10:35.492Z","updatedAt":"2025-05-19T08:10:53.226Z"},{"id":6020,"teamId":25,"userId":5884,"email":"user001@user001.vv","userDisplayName":"user001","permissionList":["EDIT","VIEW","RUN"],"invitationStatus":"ACCEPTED","inviteUrl":null,"expiredAt":null,"createAt":"2025-05-19T10:07:31.649Z","updatedAt":"2025-05-19T10:08:01.270Z"},{"id":6027,"teamId":25,"userId":5888,"email":"nagruzka3_gr01_vais1@gmail.com","userDisplayName":"Nagruzka3_gr01_vais1","permissionList":["EDIT","VIEW","RUN"],"invitationStatus":"ACCEPTED","inviteUrl":null,"expiredAt":null,"createAt":"2025-05-19T13:11:25.266Z","updatedAt":"2025-05-19T13:28:48.657Z"},{"id":6040,"teamId":25,"userId":5899,"email":"leb_test_01@gmai.com","userDisplayName":"leb_test_01","permissionList":["EDIT","VIEW","RUN"],"invitationStatus":"ACCEPTED","inviteUrl":null,"expiredAt":null,"createAt":"2025-05-19T15:09:25.844Z","updatedAt":"2025-05-19T15:10:00.837Z"},{"id":6047,"teamId":25,"userId":5905,"email":"test1@mail.com","userDisplayName":"test1","permissionList":["EDIT","VIEW","RUN"],"invitationStatus":"ACCEPTED","inviteUrl":null,"expiredAt":null,"createAt":"2025-05-19T15:41:40.909Z","updatedAt":"2025-05-19T15:41:53.941Z"},{"id":6059,"teamId":25,"userId":5916,"email":"usertest41@mail.com","userDisplayName":"userTest41","permissionList":["EDIT","VIEW","RUN"],"invitationStatus":"ACCEPTED","inviteUrl":null,"expiredAt":null,"createAt":"2025-05-19T16:28:39.112Z","updatedAt":"2025-05-19T16:28:55.967Z"},{"id":6060,"teamId":25,"userId":5917,"email":"usertest42@mail.com","userDisplayName":"userTest42","permissionList":["EDIT","VIEW","RUN"],"invitationStatus":"ACCEPTED","inviteUrl":null,"expiredAt":null,"createAt":"2025-05-19T16:30:43.578Z","updatedAt":"2025-05-19T16:30:59.188Z"},{"id":6063,"teamId":25,"userId":5919,"email":"test123@mail.com","userDisplayName":"test123","permissionList":["EDIT","VIEW","RUN"],"invitationStatus":"ACCEPTED","inviteUrl":null,"expiredAt":null,"createAt":"2025-05-19T18:41:38.506Z","updatedAt":"2025-05-19T18:44:26.489Z"},{"id":6064,"teamId":25,"userId":5920,"email":"qqqq@gf.hg","userDisplayName":"qqqq","permissionList":["EDIT","VIEW","RUN"],"invitationStatus":"ACCEPTED","inviteUrl":null,"expiredAt":null,"createAt":"2025-05-19T18:50:38.124Z","updatedAt":"2025-05-19T18:51:26.629Z"}],"pageable":{"sort":{"sorted":false,"unsorted":true,"empty":true},"pageNumber":0,"pageSize":12,"offset":0,"unpaged":false,"paged":true},"last":false,"totalElements":18,"totalPages":2,"first":true,"sort":{"sorted":false,"unsorted":true,"empty":true},"numberOfElements":12,"size":12,"number":0,"empty":false}