{"content":[{"id":6065,"teamId":25,"userId":5921,"email":"uc_1_01@boom.com","userDisplayName":" uc_1_01","permissionList":["EDIT","VIEW","RUN"],"invitationStatus":"ACCEPTED","inviteUrl":null,"expiredAt":null,"createAt":"2025-05-19T18:58:52.395Z","updatedAt":"2025-05-19T18:59:51.708Z"},{"id":6066,"teamId":25,"userId":5922,"email":"rere@fr.com","userDisplayName":"rere","permissionList":["EDIT","VIEW","RUN"],"invitationStatus":"ACCEPTED","inviteUrl":null,"expiredAt":null,"createAt":"2025-05-19T20:12:46.675Z","updatedAt":"2025-05-19T20:13:09.855Z"},{"id":6067,"teamId":25,"userId":5923,"email":"1212@ds.com","userDisplayName":"1212","permissionList":[],"invitationStatus":"ACCEPTED","inviteUrl":null,"expiredAt":null,"createAt":"2025-05-19T20:16:16.801Z","updatedAt":"2025-05-19T20:16:33.212Z"},{"id":6068,"teamId":25,"userId":5924,"email":"qwer@yu.com","userDisplayName":"qwer","permissionList":["EDIT","VIEW","RUN"],"invitationStatus":"ACCEPTED","inviteUrl":null,"expiredAt":null,"createAt":"2025-05-19T20:28:35.391Z","updatedAt":"2025-05-19T20:28:48.767Z"},{"id":6069,"teamId":25,"userId":5925,"email":"we@re.com","userDisplayName":"we","permissionList":["EDIT","VIEW","RUN"],"invitationStatus":"ACCEPTED","inviteUrl":null,"expiredAt":null,"createAt":"2025-05-19T21:19:14.934Z","updatedAt":"2025-05-19T21:21:49.496Z"},{"id":6070,"teamId":25,"userId":5926,"email":"wert@fd.com","userDisplayName":"wert","permissionList":["EDIT","VIEW","RUN"],"invitationStatus":"ACCEPTED","inviteUrl":null,"expiredAt":null,"createAt":"2025-05-19T22:03:45.069Z","updatedAt":"2025-05-19T22:04:02.865Z"},{"id":6071,"teamId":25,"userId":5927,"email":"kek@gmail.com","userDisplayName":"kek","permissionList":["EDIT","VIEW","RUN"],"invitationStatus":"WAITING_FOR_ACCEPTANCE","inviteUrl":"/auth-srv/invite/WzNGdR4pblov9NZieia1gx1ZYDvzvDgHRVTCHgDwhthzUsP4kKAxPELORnInunv2bPpZx8rOgZBjY1hywL6c95IC5lOLRCd5e90Eb0EsGxQ=","expiredAt":"2025-05-20T22:59:46.498Z","createAt":"2025-05-19T22:59:46.499Z","updatedAt":"2025-05-19T22:59:46.620Z"}],"pageable":{"sort":{"sorted":false,"unsorted":true,"empty":true},"pageNumber":1,"pageSize":12,"offset":12,"unpaged":false,"paged":true},"last":true,"totalElements":19,"totalPages":2,"first":false,"sort":{"sorted":false,"unsorted":true,"empty":true},"numberOfElements":7,"size":12,"number":1,"empty":false}