{"content":[{"id":5865,"name":"report_123","createdAt":"2025-05-20T20:00:32.861Z","updatedAt":"2025-05-20T20:00:32.881Z","createdByUserEmail":"test123@mail.com","updatedByUserEmail":"test123@mail.com","testIdSet":[],"labelSet":[]},{"id":5864,"name":"report_123","createdAt":"2025-05-20T19:59:10.296Z","updatedAt":"2025-05-20T19:59:10.321Z","createdByUserEmail":"test123@mail.com","updatedByUserEmail":"test123@mail.com","testIdSet":[],"labelSet":[]},{"id":5863,"name":"report_123","createdAt":"2025-05-20T19:58:45.607Z","updatedAt":"2025-05-20T19:58:45.627Z","createdByUserEmail":"test123@mail.com","updatedByUserEmail":"test123@mail.com","testIdSet":[],"labelSet":[]},{"id":5862,"name":"Report_7645","createdAt":"2025-05-20T19:45:16.267Z","updatedAt":"2025-05-20T19:45:16.287Z","createdByUserEmail":"user6908@example.com","updatedByUserEmail":"user6908@example.com","testIdSet":[],"labelSet":[]},{"id":5861,"name":"Report_7090","createdAt":"2025-05-20T19:42:27.106Z","updatedAt":"2025-05-20T19:42:27.129Z","createdByUserEmail":"user6908@example.com","updatedByUserEmail":"user6908@example.com","testIdSet":[],"labelSet":[]},{"id":5860,"name":"Report_6202","createdAt":"2025-05-20T19:37:55.190Z","updatedAt":"2025-05-20T19:37:55.235Z","createdByUserEmail":"user6908@example.com","updatedByUserEmail":"user6908@example.com","testIdSet":[],"labelSet":[]},{"id":5859,"name":"Report_5770","createdAt":"2025-05-20T19:35:42.760Z","updatedAt":"2025-05-20T19:35:42.778Z","createdByUserEmail":"user6908@example.com","updatedByUserEmail":"user6908@example.com","testIdSet":[],"labelSet":[]},{"id":5858,"name":"Report_5483","createdAt":"2025-05-20T19:34:14.526Z","updatedAt":"2025-05-20T19:34:14.545Z","createdByUserEmail":"user6908@example.com","updatedByUserEmail":"user6908@example.com","testIdSet":[],"labelSet":[]},{"id":5851,"name":"Report_2222","createdAt":"2025-05-20T16:39:30.233Z","updatedAt":"2025-05-20T19:28:15.842Z","createdByUserEmail":"nagruzka3_gr01@mail.com","updatedByUserEmail":"nagruzka3_gr01@mail.com","testIdSet":[],"labelSet":[]}],"pageable":{"sort":{"sorted":true,"unsorted":false,"empty":false},"pageNumber":0,"pageSize":9,"offset":0,"paged":true,"unpaged":false},"totalPages":3,"totalElements":23,"last":false,"first":true,"sort":{"sorted":true,"unsorted":false,"empty":false},"numberOfElements":9,"size":9,"number":0,"empty":false}