{"content":[{"id":7566,"projectName":"hadouken_test_666","settingsId":null,"comment":"","lastModified":"2025-05-21T12:17:55","contentFormat":"yaml","contentModelVersion":null,"labelSet":[],"testType":"STABLE","requestCount":1,"totalDuration":60,"version":[{"id":8647,"projectId":7566,"settingsId":null,"createdOn":"2025-05-21T12:17:55.690Z","location":"boomq/teams/25/projects/7566/v_8647.yaml","comment":"","contentFormat":"yaml","contentModelVersion":"2.0.0","testType":"STABLE","requestCount":1,"totalDuration":60,"versionNumber":1}]},{"id":7565,"projectName":"hadouken_666","settingsId":null,"comment":"","lastModified":"2025-05-21T12:06:01","contentFormat":"yaml","contentModelVersion":null,"labelSet":[],"testType":"STABLE","requestCount":1,"totalDuration":60,"version":[{"id":8646,"projectId":7565,"settingsId":null,"createdOn":"2025-05-21T12:06:01.602Z","location":"boomq/teams/25/projects/7565/v_8646.yaml","comment":"","contentFormat":"yaml","contentModelVersion":"2.0.0","testType":"STABLE","requestCount":1,"totalDuration":60,"versionNumber":1},{"id":8648,"projectId":7565,"settingsId":null,"createdOn":"2025-05-21T12:18:29.997Z","location":"boomq/teams/25/projects/7565/v_8648.yaml","comment":"","contentFormat":"yaml","contentModelVersion":"2.0.0","testType":"STABLE","requestCount":1,"totalDuration":60,"versionNumber":2}]},{"id":7564,"projectName":"hadouken_666","settingsId":null,"comment":"","lastModified":"2025-05-21T12:04:41","contentFormat":"yaml","contentModelVersion":null,"labelSet":[],"testType":"STABLE","requestCount":1,"totalDuration":60,"version":[{"id":8645,"projectId":7564,"settingsId":null,"createdOn":"2025-05-21T12:04:41.709Z","location":"boomq/teams/25/projects/7564/v_8645.yaml","comment":"","contentFormat":"yaml","contentModelVersion":"2.0.0","testType":"STABLE","requestCount":1,"totalDuration":60,"versionNumber":1}]},{"id":7563,"projectName":"new test 12345 edit","settingsId":null,"comment":"","lastModified":"2025-05-21T09:31:51","contentFormat":"yaml","contentModelVersion":null,"labelSet":[],"testType":"STABLE","requestCount":1,"totalDuration":60,"version":[{"id":8644,"projectId":7563,"settingsId":null,"createdOn":"2025-05-21T09:31:51.772Z","location":"boomq/teams/25/projects/7563/v_8644.yaml","comment":"","contentFormat":"yaml","contentModelVersion":"2.0.0","testType":"STABLE","requestCount":1,"totalDuration":60,"versionNumber":1}]},{"id":7562,"projectName":"new test 12345 edit","settingsId":null,"comment":"","lastModified":"2025-05-21T09:28:51","contentFormat":"yaml","contentModelVersion":null,"labelSet":[],"testType":"STABLE","requestCount":1,"totalDuration":60,"version":[{"id":8643,"projectId":7562,"settingsId":null,"createdOn":"2025-05-21T09:28:51.540Z","location":"boomq/teams/25/projects/7562/v_8643.yaml","comment":"","contentFormat":"yaml","contentModelVersion":"2.0.0","testType":"STABLE","requestCount":1,"totalDuration":60,"versionNumber":1}]},{"id":7561,"projectName":"new test 12345 edit","settingsId":null,"comment":"","lastModified":"2025-05-21T09:25:58","contentFormat":"yaml","contentModelVersion":null,"labelSet":[],"testType":"STABLE","requestCount":1,"totalDuration":60,"version":[{"id":8642,"projectId":7561,"settingsId":null,"createdOn":"2025-05-21T09:25:58.892Z","location":"boomq/teams/25/projects/7561/v_8642.yaml","comment":"","contentFormat":"yaml","contentModelVersion":"2.0.0","testType":"STABLE","requestCount":1,"totalDuration":60,"versionNumber":1}]},{"id":7560,"projectName":"test_gr4_35ca1ba6","settingsId":null,"comment":"","lastModified":"2025-05-21T06:43:27","contentFormat":"yaml","contentModelVersion":null,"labelSet":[],"testType":"STABLE","requestCount":1,"totalDuration":60,"version":[{"id":8638,"projectId":7560,"settingsId":null,"createdOn":"2025-05-21T06:43:27.722Z","location":"boomq/teams/25/projects/7560/v_8638.yaml","comment":"","contentFormat":"yaml","contentModelVersion":"2.0.0","testType":"STABLE","requestCount":1,"totalDuration":60,"versionNumber":1}]},{"id":7559,"projectName":"untitled_test_07:34no","settingsId":null,"comment":"","lastModified":"2025-05-21T06:28:37","contentFormat":"yaml","contentModelVersion":null,"labelSet":[],"testType":"STABLE","requestCount":1,"totalDuration":60,"version":[{"id":8637,"projectId":7559,"settingsId":null,"createdOn":"2025-05-21T06:28:37.063Z","location":"boomq/teams/25/projects/7559/v_8637.yaml","comment":"","contentFormat":"yaml","contentModelVersion":"2.0.0","testType":"STABLE","requestCount":1,"totalDuration":60,"versionNumber":1}]},{"id":7558,"projectName":"untitled_test_07:34no","settingsId":null,"comment":"","lastModified":"2025-05-21T06:27:58","contentFormat":"yaml","contentModelVersion":null,"labelSet":[],"testType":"STABLE","requestCount":1,"totalDuration":60,"version":[{"id":8636,"projectId":7558,"settingsId":null,"createdOn":"2025-05-21T06:27:58.117Z","location":"boomq/teams/25/projects/7558/v_8636.yaml","comment":"","contentFormat":"yaml","contentModelVersion":"2.0.0","testType":"STABLE","requestCount":1,"totalDuration":60,"versionNumber":1}]}],"pageable":{"sort":{"sorted":true,"unsorted":false,"empty":false},"pageNumber":0,"pageSize":9,"offset":0,"paged":true,"unpaged":false},"totalElements":49,"totalPages":6,"last":false,"first":true,"sort":{"sorted":true,"unsorted":false,"empty":false},"numberOfElements":9,"size":9,"number":0,"empty":false}