{"content":[{"id":9140,"testProjectId":7566,"testProjectVersionId":8647,"testMode":"TEST","state":"TEST_PLANS_CREATED","displayState":"INITIALIZATION","userId":5881,"userEmail":"nagruzka3_gr01@mail.com","teamId":25,"createDate":"2025-05-21T12:41:44.956Z","startDate":null,"endDate":null,"comment":"","labelSet":[],"testProject":{"id":7566,"projectName":"hadouken_test_666","settingsId":null,"comment":null,"lastModified":null,"contentFormat":null,"contentModelVersion":null,"labelSet":null,"testType":null,"requestCount":null,"totalDuration":null,"version":null},"testProjectVersion":{"id":8647,"projectId":7566,"settingsId":null,"createdOn":1747829875.690000000,"location":"boomq/teams/25/projects/7566/v_8647.yaml","comment":"","contentFormat":"yaml","contentModelVersion":"2.0.0","testType":"STABLE","requestCount":1,"totalDuration":60,"versionNumber":1},"testResult":{"testId":9140,"usersChartSvg":null,"testResultSlaState":"PROCESSING","slaResults":null,"testResultFilesState":"PROCESSING"},"testError":null},{"id":9139,"testProjectId":7565,"testProjectVersionId":8648,"testMode":"TEST","state":"FINISHED","displayState":"FINISHED","userId":5881,"userEmail":"nagruzka3_gr01@mail.com","teamId":25,"createDate":"2025-05-21T12:18:31.274Z","startDate":"2025-05-21T12:18:46.895Z","endDate":"2025-05-21T12:19:44.897Z","comment":"","labelSet":[],"testProject":{"id":7565,"projectName":"hadouken_666","settingsId":null,"comment":null,"lastModified":null,"contentFormat":null,"contentModelVersion":null,"labelSet":null,"testType":null,"requestCount":null,"totalDuration":null,"version":null},"testProjectVersion":{"id":8648,"projectId":7565,"settingsId":null,"createdOn":1747829909.997000000,"location":"boomq/teams/25/projects/7565/v_8648.yaml","comment":"","contentFormat":"yaml","contentModelVersion":"2.0.0","testType":"STABLE","requestCount":1,"totalDuration":60,"versionNumber":2},"testResult":{"testId":9139,"usersChartSvg":"<svg xmlns=\"http://www.w3.org/2000/svg\" xmlns:xlink=\"http://www.w3.org/1999/xlink\" xmlns:jfreesvg=\"http://www.jfree.org/jfreesvg/svg\" width=\"150\" height=\"75\" text-rendering=\"auto\" shape-rendering=\"auto\">\n<defs><clipPath id=\"_1484177352414291clip-0\"><path d=\"M 0 0 L 150 0 L 150 75 L 0 75 L 0 0 Z \"/></clipPath>\n<clipPath id=\"_1484177352414291clip-1\"><path d=\"M 25 8 L 25 53 L 138 53 L 138 8 Z \"/></clipPath>\n</defs>\n<rect x=\"0\" y=\"0\" width=\"150\" height=\"75\" style=\"fill: rgb(255,255,255); fill-opacity: 1.0\" clip-path=\"url(#_1484177352414291clip-0)\"/><rect x=\"25\" y=\"8\" width=\"113\" height=\"45\" style=\"fill: rgb(255,255,255); fill-opacity: 1.0\" clip-path=\"url(#_1484177352414291clip-0)\"/><g ><text x=\"7\" y=\"69.11\" style=\"fill: rgb(0,0,0); fill-opacity: 1.0; font-family: sans-serif; font-size: 8px;\" clip-path=\"url(#_1484177352414291clip-0)\">00:00:00</text></g><g ><text x=\"109.73\" y=\"69.11\" style=\"fill: rgb(0,0,0); fill-opacity: 1.0; font-family: sans-serif; font-size: 8px;\" clip-path=\"url(#_1484177352414291clip-0)\">00:01:00</text></g><g ><text x=\"10\" y=\"56.11\" style=\"fill: rgb(0,0,0); fill-opacity: 1.0; font-family: sans-serif; font-size: 8px;\" clip-path=\"url(#_1484177352414291clip-0)\">0</text></g><g ><text x=\"10\" y=\"13.26\" style=\"fill: rgb(0,0,0); fill-opacity: 1.0; font-family: sans-serif; font-size: 8px;\" clip-path=\"url(#_1484177352414291clip-0)\">1</text></g><g style=\"stroke-width: 2.0;stroke: rgb(73,137,214);stroke-opacity: 1.0;stroke-linecap: square;shape-rendering:geometricPrecision;; fill: none\" clip-path=\"url(#_1484177352414291clip-1)\"><path d=\"M 25 53 L 42.12 10.14 L 59.24 10.14 L 76.36 10.14 L 93.48 10.14 L 110.61 10.14 L 127.73 53\"/></g></svg>","testResultSlaState":"FINISHED","slaResults":{"slaGroupList":[{"type":"GENERAL_TEST_SLA","targetType":"TEST","slaList":[{"restrictionType":"AVERAGE","fromDate":4,"toDate":45,"operation":"LESS_EQUALS","value":5.0,"result":0.32,"status":"SUCCESS"},{"restrictionType":"ERROR_RATE","fromDate":0,"toDate":60,"operation":"LESS_EQUALS","value":5.0,"result":0.0,"status":"SUCCESS"},{"restrictionType":"THROUGHPUT","fromDate":2,"toDate":60,"operation":"LESS_EQUALS","value":5.0,"result":0.12,"status":"SUCCESS"}]},{"type":"THREAD_GROUP_SLA","targetType":"THREAD_GROUP","slaList":[{"restrictionType":"ERROR_RATE","fromDate":10,"toDate":49,"operation":"LESS_EQUALS","value":5.0,"result":0.0,"status":"SUCCESS"},{"restrictionType":"THROUGHPUT","fromDate":0,"toDate":60,"operation":"LESS_EQUALS","value":5.0,"result":0.12,"status":"SUCCESS"}],"threadGroupName":"random_22","threadGroupId":"8b57e67b-cb2c-4ac8-9abd-9224c221a178"},{"type":"TRANSACTION_SLA","targetType":"TRANSACTION","slaList":[{"restrictionType":"ERROR_RATE","fromDate":9,"toDate":53,"operation":"LESS_EQUALS","value":5.0,"result":0.0,"status":"SUCCESS"},{"restrictionType":"THROUGHPUT","fromDate":0,"toDate":60,"operation":"LESS_EQUALS","value":5.0,"result":0.13,"status":"SUCCESS"}],"transactionName":"Random_Transaction_1","transactionId":"78a6c266-ec69-412c-93df-a68ed79b50a9","threadGroupName":"random_22","threadGroupId":"8b57e67b-cb2c-4ac8-9abd-9224c221a178"},{"type":"REQUEST_SLA","targetType":"REQUEST","slaList":[{"restrictionType":"ERROR_RATE","fromDate":6,"toDate":56,"operation":"LESS_EQUALS","value":5.0,"result":0.0,"status":"SUCCESS"}],"requestName":"https://webtours.pflb.ru/WebTours/","transactionFilterType":"ANY_TRANSACTION","transactionName":null,"transactionId":null,"threadGroupName":null,"threadGroupId":null},{"type":"REQUEST_SLA","targetType":"REQUEST","slaList":[{"restrictionType":"THROUGHPUT","fromDate":0,"toDate":60,"operation":"LESS_EQUALS","value":5.0,"result":0.12,"status":"SUCCESS"}],"requestName":"https://webtours.pflb.ru/WebTours/","transactionFilterType":"ANY_TRANSACTION","transactionName":null,"transactionId":null,"threadGroupName":"random_22","threadGroupId":"8b57e67b-cb2c-4ac8-9abd-9224c221a178"},{"type":"SYSTEM_METRICS_HOST","targetType":"SYSTEM_METRICS_HOST","slaList":[{"restrictionType":"MEMORY_USAGE_PERCENT_AVERAGE","fromDate":0,"toDate":60,"operation":"LESS_EQUALS","value":80.0,"result":null,"status":"NOT_COUNTED"},{"restrictionType":"CPU_USAGE_PERCENT_AVERAGE","fromDate":0,"toDate":60,"operation":"LESS_EQUALS","value":80.0,"result":null,"status":"NOT_COUNTED"}],"hostname":"https://webtours.pflb.ru/WebTours/"}],"status":"FAILURE"},"testResultFilesState":"FINISHED"},"testError":null},{"id":9138,"testProjectId":7565,"testProjectVersionId":8646,"testMode":"TEST","state":"FINISHED","displayState":"FINISHED","userId":5881,"userEmail":"nagruzka3_gr01@mail.com","teamId":25,"createDate":"2025-05-21T12:10:51.421Z","startDate":"2025-05-21T12:11:02.587Z","endDate":"2025-05-21T12:12:00.395Z","comment":"","labelSet":[],"testProject":{"id":7565,"projectName":"hadouken_666","settingsId":null,"comment":null,"lastModified":null,"contentFormat":null,"contentModelVersion":null,"labelSet":null,"testType":null,"requestCount":null,"totalDuration":null,"version":null},"testProjectVersion":{"id":8646,"projectId":7565,"settingsId":null,"createdOn":1747829161.602000000,"location":"boomq/teams/25/projects/7565/v_8646.yaml","comment":"","contentFormat":"yaml","contentModelVersion":"2.0.0","testType":"STABLE","requestCount":1,"totalDuration":60,"versionNumber":1},"testResult":{"testId":9138,"usersChartSvg":"<svg xmlns=\"http://www.w3.org/2000/svg\" xmlns:xlink=\"http://www.w3.org/1999/xlink\" xmlns:jfreesvg=\"http://www.jfree.org/jfreesvg/svg\" width=\"150\" height=\"75\" text-rendering=\"auto\" shape-rendering=\"auto\">\n<defs><clipPath id=\"_1483712139209329clip-0\"><path d=\"M 0 0 L 150 0 L 150 75 L 0 75 L 0 0 Z \"/></clipPath>\n<clipPath id=\"_1483712139209329clip-1\"><path d=\"M 25 8 L 25 53 L 138 53 L 138 8 Z \"/></clipPath>\n</defs>\n<rect x=\"0\" y=\"0\" width=\"150\" height=\"75\" style=\"fill: rgb(255,255,255); fill-opacity: 1.0\" clip-path=\"url(#_1483712139209329clip-0)\"/><rect x=\"25\" y=\"8\" width=\"113\" height=\"45\" style=\"fill: rgb(255,255,255); fill-opacity: 1.0\" clip-path=\"url(#_1483712139209329clip-0)\"/><g ><text x=\"7\" y=\"69.11\" style=\"fill: rgb(0,0,0); fill-opacity: 1.0; font-family: sans-serif; font-size: 8px;\" clip-path=\"url(#_1483712139209329clip-0)\">00:00:00</text></g><g ><text x=\"109.73\" y=\"69.11\" style=\"fill: rgb(0,0,0); fill-opacity: 1.0; font-family: sans-serif; font-size: 8px;\" clip-path=\"url(#_1483712139209329clip-0)\">00:01:00</text></g><g ><text x=\"10\" y=\"56.11\" style=\"fill: rgb(0,0,0); fill-opacity: 1.0; font-family: sans-serif; font-size: 8px;\" clip-path=\"url(#_1483712139209329clip-0)\">0</text></g><g ><text x=\"10\" y=\"13.26\" style=\"fill: rgb(0,0,0); fill-opacity: 1.0; font-family: sans-serif; font-size: 8px;\" clip-path=\"url(#_1483712139209329clip-0)\">1</text></g><g style=\"stroke-width: 2.0;stroke: rgb(73,137,214);stroke-opacity: 1.0;stroke-linecap: square;shape-rendering:geometricPrecision;; fill: none\" clip-path=\"url(#_1483712139209329clip-1)\"><path d=\"M 25 10.14 L 42.12 10.14 L 59.24 10.14 L 76.36 10.14 L 93.48 10.14 L 110.61 10.14 L 127.73 53\"/></g></svg>","testResultSlaState":"FINISHED","slaResults":{"slaGroupList":[{"type":"GENERAL_TEST_SLA","targetType":"TEST","slaList":[{"restrictionType":"AVERAGE","fromDate":10,"toDate":45,"operation":"LESS_EQUALS","value":5.0,"result":0.33,"status":"SUCCESS"},{"restrictionType":"ERROR_RATE","fromDate":13,"toDate":53,"operation":"LESS_EQUALS","value":464.0,"result":0.0,"status":"SUCCESS"}]},{"type":"THREAD_GROUP_SLA","targetType":"THREAD_GROUP","slaList":[{"restrictionType":"AVERAGE","fromDate":10,"toDate":49,"operation":"LESS_EQUALS","value":0.0,"result":0.31,"status":"FAILURE"}],"threadGroupName":"random_22","threadGroupId":"8b57e67b-cb2c-4ac8-9abd-9224c221a178"},{"type":"TRANSACTION_SLA","targetType":"TRANSACTION","slaList":[{"restrictionType":"ERROR_RATE","fromDate":9,"toDate":53,"operation":"LESS_EQUALS","value":151324.0,"result":0.0,"status":"SUCCESS"}],"transactionName":"Random_Transaction_1","transactionId":"78a6c266-ec69-412c-93df-a68ed79b50a9","threadGroupName":"random_22","threadGroupId":"8b57e67b-cb2c-4ac8-9abd-9224c221a178"},{"type":"REQUEST_SLA","targetType":"REQUEST","slaList":[{"restrictionType":"ERROR_RATE","fromDate":6,"toDate":56,"operation":"LESS_EQUALS","value":0.0,"result":0.0,"status":"SUCCESS"}],"requestName":"https://webtours.pflb.ru/WebTours/","transactionFilterType":"ANY_TRANSACTION","transactionName":null,"transactionId":null,"threadGroupName":null,"threadGroupId":null}],"status":"FAILURE"},"testResultFilesState":"FINISHED"},"testError":null},{"id":9137,"testProjectId":7565,"testProjectVersionId":8646,"testMode":"TEST","state":"FINISHED","displayState":"FINISHED","userId":5881,"userEmail":"nagruzka3_gr01@mail.com","teamId":25,"createDate":"2025-05-21T12:06:43.524Z","startDate":"2025-05-21T12:06:54.746Z","endDate":"2025-05-21T12:07:52.452Z","comment":"","labelSet":[],"testProject":{"id":7565,"projectName":"hadouken_666","settingsId":null,"comment":null,"lastModified":null,"contentFormat":null,"contentModelVersion":null,"labelSet":null,"testType":null,"requestCount":null,"totalDuration":null,"version":null},"testProjectVersion":{"id":8646,"projectId":7565,"settingsId":null,"createdOn":1747829161.602000000,"location":"boomq/teams/25/projects/7565/v_8646.yaml","comment":"","contentFormat":"yaml","contentModelVersion":"2.0.0","testType":"STABLE","requestCount":1,"totalDuration":60,"versionNumber":1},"testResult":{"testId":9137,"usersChartSvg":"<svg xmlns=\"http://www.w3.org/2000/svg\" xmlns:xlink=\"http://www.w3.org/1999/xlink\" xmlns:jfreesvg=\"http://www.jfree.org/jfreesvg/svg\" width=\"150\" height=\"75\" text-rendering=\"auto\" shape-rendering=\"auto\">\n<defs><clipPath id=\"_1483471969161989clip-0\"><path d=\"M 0 0 L 150 0 L 150 75 L 0 75 L 0 0 Z \"/></clipPath>\n<clipPath id=\"_1483471969161989clip-1\"><path d=\"M 25 8 L 25 53 L 138 53 L 138 8 Z \"/></clipPath>\n</defs>\n<rect x=\"0\" y=\"0\" width=\"150\" height=\"75\" style=\"fill: rgb(255,255,255); fill-opacity: 1.0\" clip-path=\"url(#_1483471969161989clip-0)\"/><rect x=\"25\" y=\"8\" width=\"113\" height=\"45\" style=\"fill: rgb(255,255,255); fill-opacity: 1.0\" clip-path=\"url(#_1483471969161989clip-0)\"/><g ><text x=\"7\" y=\"69.11\" style=\"fill: rgb(0,0,0); fill-opacity: 1.0; font-family: sans-serif; font-size: 8px;\" clip-path=\"url(#_1483471969161989clip-0)\">00:00:00</text></g><g ><text x=\"109.73\" y=\"69.11\" style=\"fill: rgb(0,0,0); fill-opacity: 1.0; font-family: sans-serif; font-size: 8px;\" clip-path=\"url(#_1483471969161989clip-0)\">00:01:00</text></g><g ><text x=\"10\" y=\"56.11\" style=\"fill: rgb(0,0,0); fill-opacity: 1.0; font-family: sans-serif; font-size: 8px;\" clip-path=\"url(#_1483471969161989clip-0)\">0</text></g><g ><text x=\"10\" y=\"13.26\" style=\"fill: rgb(0,0,0); fill-opacity: 1.0; font-family: sans-serif; font-size: 8px;\" clip-path=\"url(#_1483471969161989clip-0)\">1</text></g><g style=\"stroke-width: 2.0;stroke: rgb(73,137,214);stroke-opacity: 1.0;stroke-linecap: square;shape-rendering:geometricPrecision;; fill: none\" clip-path=\"url(#_1483471969161989clip-1)\"><path d=\"M 25 10.14 L 42.12 10.14 L 59.24 10.14 L 76.36 10.14 L 93.48 10.14 L 110.61 10.14 L 127.73 53\"/></g></svg>","testResultSlaState":"FINISHED","slaResults":{"slaGroupList":[{"type":"GENERAL_TEST_SLA","targetType":"TEST","slaList":[{"restrictionType":"AVERAGE","fromDate":10,"toDate":45,"operation":"LESS_EQUALS","value":5.0,"result":0.28,"status":"SUCCESS"},{"restrictionType":"ERROR_RATE","fromDate":13,"toDate":53,"operation":"LESS_EQUALS","value":464.0,"result":0.0,"status":"SUCCESS"}]},{"type":"THREAD_GROUP_SLA","targetType":"THREAD_GROUP","slaList":[{"restrictionType":"ERROR_RATE","fromDate":10,"toDate":49,"operation":"LESS_EQUALS","value":90.0,"result":0.0,"status":"SUCCESS"}],"threadGroupName":"random_22","threadGroupId":"8b57e67b-cb2c-4ac8-9abd-9224c221a178"},{"type":"TRANSACTION_SLA","targetType":"TRANSACTION","slaList":[{"restrictionType":"ERROR_RATE","fromDate":9,"toDate":53,"operation":"LESS_EQUALS","value":151324.0,"result":0.0,"status":"SUCCESS"}],"transactionName":"Random_Transaction_1","transactionId":"78a6c266-ec69-412c-93df-a68ed79b50a9","threadGroupName":"random_22","threadGroupId":"8b57e67b-cb2c-4ac8-9abd-9224c221a178"},{"type":"REQUEST_SLA","targetType":"REQUEST","slaList":[{"restrictionType":"ERROR_RATE","fromDate":6,"toDate":56,"operation":"LESS_EQUALS","value":0.0,"result":0.0,"status":"SUCCESS"}],"requestName":"https://webtours.pflb.ru/WebTours/","transactionFilterType":"ANY_TRANSACTION","transactionName":null,"transactionId":null,"threadGroupName":null,"threadGroupId":null}],"status":"SUCCESS"},"testResultFilesState":"FINISHED"},"testError":null},{"id":9136,"testProjectId":7563,"testProjectVersionId":8644,"testMode":"TEST","state":"FINISHED","displayState":"FINISHED","userId":5881,"userEmail":"nagruzka3_gr01@mail.com","teamId":25,"createDate":"2025-05-21T11:56:40.045Z","startDate":"2025-05-21T11:56:51.259Z","endDate":"2025-05-21T11:57:48.946Z","comment":"","labelSet":[],"testProject":{"id":7563,"projectName":"new test 12345 edit","settingsId":null,"comment":null,"lastModified":null,"contentFormat":null,"contentModelVersion":null,"labelSet":null,"testType":null,"requestCount":null,"totalDuration":null,"version":null},"testProjectVersion":{"id":8644,"projectId":7563,"settingsId":null,"createdOn":1747819911.772000000,"location":"boomq/teams/25/projects/7563/v_8644.yaml","comment":"","contentFormat":"yaml","contentModelVersion":"2.0.0","testType":"STABLE","requestCount":1,"totalDuration":60,"versionNumber":1},"testResult":{"testId":9136,"usersChartSvg":"<svg xmlns=\"http://www.w3.org/2000/svg\" xmlns:xlink=\"http://www.w3.org/1999/xlink\" xmlns:jfreesvg=\"http://www.jfree.org/jfreesvg/svg\" width=\"150\" height=\"75\" text-rendering=\"auto\" shape-rendering=\"auto\">\n<defs><clipPath id=\"_1482871665488286clip-0\"><path d=\"M 0 0 L 150 0 L 150 75 L 0 75 L 0 0 Z \"/></clipPath>\n<clipPath id=\"_1482871665488286clip-1\"><path d=\"M 25 8 L 25 53 L 138 53 L 138 8 Z \"/></clipPath>\n</defs>\n<rect x=\"0\" y=\"0\" width=\"150\" height=\"75\" style=\"fill: rgb(255,255,255); fill-opacity: 1.0\" clip-path=\"url(#_1482871665488286clip-0)\"/><rect x=\"25\" y=\"8\" width=\"113\" height=\"45\" style=\"fill: rgb(255,255,255); fill-opacity: 1.0\" clip-path=\"url(#_1482871665488286clip-0)\"/><g ><text x=\"7\" y=\"69.11\" style=\"fill: rgb(0,0,0); fill-opacity: 1.0; font-family: sans-serif; font-size: 8px;\" clip-path=\"url(#_1482871665488286clip-0)\">00:00:00</text></g><g ><text x=\"109.73\" y=\"69.11\" style=\"fill: rgb(0,0,0); fill-opacity: 1.0; font-family: sans-serif; font-size: 8px;\" clip-path=\"url(#_1482871665488286clip-0)\">00:00:50</text></g><g ><text x=\"10\" y=\"56.11\" style=\"fill: rgb(0,0,0); fill-opacity: 1.0; font-family: sans-serif; font-size: 8px;\" clip-path=\"url(#_1482871665488286clip-0)\">0</text></g><g ><text x=\"10\" y=\"13.26\" style=\"fill: rgb(0,0,0); fill-opacity: 1.0; font-family: sans-serif; font-size: 8px;\" clip-path=\"url(#_1482871665488286clip-0)\">1</text></g><g style=\"stroke-width: 2.0;stroke: rgb(73,137,214);stroke-opacity: 1.0;stroke-linecap: square;shape-rendering:geometricPrecision;; fill: none\" clip-path=\"url(#_1482871665488286clip-1)\"><path d=\"M 25 10.14 L 45.55 10.14 L 66.09 10.14 L 86.64 10.14 L 107.18 10.14 L 127.73 53\"/></g></svg>","testResultSlaState":"FINISHED","slaResults":{"slaGroupList":[{"type":"GENERAL_TEST_SLA","targetType":"TEST","slaList":[{"restrictionType":"AVERAGE","fromDate":0,"toDate":23,"operation":"LESS_EQUALS","value":123456.0,"result":0.33,"status":"SUCCESS"},{"restrictionType":"ERROR_RATE","fromDate":0,"toDate":55,"operation":"LESS_EQUALS","value":20.0,"result":0.0,"status":"SUCCESS"}]},{"type":"THREAD_GROUP_SLA","targetType":"THREAD_GROUP","slaList":[{"restrictionType":"AVERAGE","fromDate":0,"toDate":60,"operation":"LESS_EQUALS","value":123.0,"result":0.25,"status":"SUCCESS"}],"threadGroupName":"New group 12345","threadGroupId":"284723e2-7fbc-4f70-a4b7-ef0b71a7cfff"},{"type":"TRANSACTION_SLA","targetType":"TRANSACTION","slaList":[{"restrictionType":"AVERAGE","fromDate":0,"toDate":60,"operation":"LESS_EQUALS","value":123.0,"result":0.25,"status":"SUCCESS"},{"restrictionType":"ERROR_RATE","fromDate":0,"toDate":60,"operation":"LESS_EQUALS","value":5.0,"result":0.0,"status":"SUCCESS"}],"transactionName":"Transaction 12345","transactionId":"8af9b9a4-b28f-40cd-9630-83df16baf5cc","threadGroupName":null,"threadGroupId":null}],"status":"SUCCESS"},"testResultFilesState":"FINISHED"},"testError":null},{"id":9135,"testProjectId":7563,"testProjectVersionId":8644,"testMode":"TEST","state":"FINISHED","displayState":"FINISHED","userId":6143,"userEmail":"testname12@mail.ru","teamId":25,"createDate":"2025-05-21T09:45:05.170Z","startDate":"2025-05-21T09:45:16.423Z","endDate":"2025-05-21T09:46:14.328Z","comment":"","labelSet":[],"testProject":{"id":7563,"projectName":"new test 12345 edit","settingsId":null,"comment":null,"lastModified":null,"contentFormat":null,"contentModelVersion":null,"labelSet":null,"testType":null,"requestCount":null,"totalDuration":null,"version":null},"testProjectVersion":{"id":8644,"projectId":7563,"settingsId":null,"createdOn":1747819911.772000000,"location":"boomq/teams/25/projects/7563/v_8644.yaml","comment":"","contentFormat":"yaml","contentModelVersion":"2.0.0","testType":"STABLE","requestCount":1,"totalDuration":60,"versionNumber":1},"testResult":{"testId":9135,"usersChartSvg":"<svg xmlns=\"http://www.w3.org/2000/svg\" xmlns:xlink=\"http://www.w3.org/1999/xlink\" xmlns:jfreesvg=\"http://www.jfree.org/jfreesvg/svg\" width=\"150\" height=\"75\" text-rendering=\"auto\" shape-rendering=\"auto\">\n<defs><clipPath id=\"_1474978038638873clip-0\"><path d=\"M 0 0 L 150 0 L 150 75 L 0 75 L 0 0 Z \"/></clipPath>\n<clipPath id=\"_1474978038638873clip-1\"><path d=\"M 25 8 L 25 53 L 138 53 L 138 8 Z \"/></clipPath>\n</defs>\n<rect x=\"0\" y=\"0\" width=\"150\" height=\"75\" style=\"fill: rgb(255,255,255); fill-opacity: 1.0\" clip-path=\"url(#_1474978038638873clip-0)\"/><rect x=\"25\" y=\"8\" width=\"113\" height=\"45\" style=\"fill: rgb(255,255,255); fill-opacity: 1.0\" clip-path=\"url(#_1474978038638873clip-0)\"/><g ><text x=\"7\" y=\"69.11\" style=\"fill: rgb(0,0,0); fill-opacity: 1.0; font-family: sans-serif; font-size: 8px;\" clip-path=\"url(#_1474978038638873clip-0)\">00:00:00</text></g><g ><text x=\"109.73\" y=\"69.11\" style=\"fill: rgb(0,0,0); fill-opacity: 1.0; font-family: sans-serif; font-size: 8px;\" clip-path=\"url(#_1474978038638873clip-0)\">00:01:00</text></g><g ><text x=\"10\" y=\"56.11\" style=\"fill: rgb(0,0,0); fill-opacity: 1.0; font-family: sans-serif; font-size: 8px;\" clip-path=\"url(#_1474978038638873clip-0)\">0</text></g><g ><text x=\"10\" y=\"13.26\" style=\"fill: rgb(0,0,0); fill-opacity: 1.0; font-family: sans-serif; font-size: 8px;\" clip-path=\"url(#_1474978038638873clip-0)\">1</text></g><g style=\"stroke-width: 2.0;stroke: rgb(73,137,214);stroke-opacity: 1.0;stroke-linecap: square;shape-rendering:geometricPrecision;; fill: none\" clip-path=\"url(#_1474978038638873clip-1)\"><path d=\"M 25 53 L 42.12 10.14 L 59.24 10.14 L 76.36 10.14 L 93.48 10.14 L 110.61 10.14 L 127.73 53\"/></g></svg>","testResultSlaState":"FINISHED","slaResults":{"slaGroupList":[{"type":"GENERAL_TEST_SLA","targetType":"TEST","slaList":[{"restrictionType":"AVERAGE","fromDate":0,"toDate":23,"operation":"LESS_EQUALS","value":123456.0,"result":0.36,"status":"SUCCESS"},{"restrictionType":"ERROR_RATE","fromDate":0,"toDate":55,"operation":"LESS_EQUALS","value":20.0,"result":0.0,"status":"SUCCESS"}]},{"type":"THREAD_GROUP_SLA","targetType":"THREAD_GROUP","slaList":[{"restrictionType":"AVERAGE","fromDate":0,"toDate":60,"operation":"LESS_EQUALS","value":123.0,"result":0.27,"status":"SUCCESS"}],"threadGroupName":"New group 12345","threadGroupId":"284723e2-7fbc-4f70-a4b7-ef0b71a7cfff"},{"type":"TRANSACTION_SLA","targetType":"TRANSACTION","slaList":[{"restrictionType":"AVERAGE","fromDate":0,"toDate":60,"operation":"LESS_EQUALS","value":123.0,"result":0.27,"status":"SUCCESS"},{"restrictionType":"ERROR_RATE","fromDate":0,"toDate":60,"operation":"LESS_EQUALS","value":5.0,"result":0.0,"status":"SUCCESS"}],"transactionName":"Transaction 12345","transactionId":"8af9b9a4-b28f-40cd-9630-83df16baf5cc","threadGroupName":null,"threadGroupId":null}],"status":"SUCCESS"},"testResultFilesState":"FINISHED"},"testError":null},{"id":9134,"testProjectId":7562,"testProjectVersionId":8643,"testMode":"TEST","state":"FINISHED","displayState":"FINISHED","userId":6143,"userEmail":"testname12@mail.ru","teamId":25,"createDate":"2025-05-21T09:42:44.993Z","startDate":"2025-05-21T09:42:56.196Z","endDate":"2025-05-21T09:43:53.925Z","comment":"","labelSet":[],"testProject":{"id":7562,"projectName":"new test 12345 edit","settingsId":null,"comment":null,"lastModified":null,"contentFormat":null,"contentModelVersion":null,"labelSet":null,"testType":null,"requestCount":null,"totalDuration":null,"version":null},"testProjectVersion":{"id":8643,"projectId":7562,"settingsId":null,"createdOn":1747819731.540000000,"location":"boomq/teams/25/projects/7562/v_8643.yaml","comment":"","contentFormat":"yaml","contentModelVersion":"2.0.0","testType":"STABLE","requestCount":1,"totalDuration":60,"versionNumber":1},"testResult":{"testId":9134,"usersChartSvg":"<svg xmlns=\"http://www.w3.org/2000/svg\" xmlns:xlink=\"http://www.w3.org/1999/xlink\" xmlns:jfreesvg=\"http://www.jfree.org/jfreesvg/svg\" width=\"150\" height=\"75\" text-rendering=\"auto\" shape-rendering=\"auto\">\n<defs><clipPath id=\"_1474827925161134clip-0\"><path d=\"M 0 0 L 150 0 L 150 75 L 0 75 L 0 0 Z \"/></clipPath>\n<clipPath id=\"_1474827925161134clip-1\"><path d=\"M 25 8 L 25 53 L 138 53 L 138 8 Z \"/></clipPath>\n</defs>\n<rect x=\"0\" y=\"0\" width=\"150\" height=\"75\" style=\"fill: rgb(255,255,255); fill-opacity: 1.0\" clip-path=\"url(#_1474827925161134clip-0)\"/><rect x=\"25\" y=\"8\" width=\"113\" height=\"45\" style=\"fill: rgb(255,255,255); fill-opacity: 1.0\" clip-path=\"url(#_1474827925161134clip-0)\"/><g ><text x=\"7\" y=\"69.11\" style=\"fill: rgb(0,0,0); fill-opacity: 1.0; font-family: sans-serif; font-size: 8px;\" clip-path=\"url(#_1474827925161134clip-0)\">00:00:00</text></g><g ><text x=\"109.73\" y=\"69.11\" style=\"fill: rgb(0,0,0); fill-opacity: 1.0; font-family: sans-serif; font-size: 8px;\" clip-path=\"url(#_1474827925161134clip-0)\">00:01:00</text></g><g ><text x=\"10\" y=\"56.11\" style=\"fill: rgb(0,0,0); fill-opacity: 1.0; font-family: sans-serif; font-size: 8px;\" clip-path=\"url(#_1474827925161134clip-0)\">0</text></g><g ><text x=\"10\" y=\"13.26\" style=\"fill: rgb(0,0,0); fill-opacity: 1.0; font-family: sans-serif; font-size: 8px;\" clip-path=\"url(#_1474827925161134clip-0)\">1</text></g><g style=\"stroke-width: 2.0;stroke: rgb(73,137,214);stroke-opacity: 1.0;stroke-linecap: square;shape-rendering:geometricPrecision;; fill: none\" clip-path=\"url(#_1474827925161134clip-1)\"><path d=\"M 25 53 L 42.12 10.14 L 59.24 10.14 L 76.36 10.14 L 93.48 10.14 L 110.61 10.14 L 127.73 53\"/></g></svg>","testResultSlaState":"FINISHED","slaResults":{"slaGroupList":[{"type":"GENERAL_TEST_SLA","targetType":"TEST","slaList":[{"restrictionType":"AVERAGE","fromDate":0,"toDate":23,"operation":"LESS_EQUALS","value":123456.0,"result":0.37,"status":"SUCCESS"},{"restrictionType":"ERROR_RATE","fromDate":0,"toDate":55,"operation":"LESS_EQUALS","value":20.0,"result":0.0,"status":"SUCCESS"}]},{"type":"THREAD_GROUP_SLA","targetType":"THREAD_GROUP","slaList":[{"restrictionType":"AVERAGE","fromDate":0,"toDate":60,"operation":"LESS_EQUALS","value":123.0,"result":0.26,"status":"SUCCESS"}],"threadGroupName":"New group 12345","threadGroupId":"284723e2-7fbc-4f70-a4b7-ef0b71a7cfff"},{"type":"TRANSACTION_SLA","targetType":"TRANSACTION","slaList":[{"restrictionType":"AVERAGE","fromDate":0,"toDate":60,"operation":"LESS_EQUALS","value":123.0,"result":0.26,"status":"SUCCESS"},{"restrictionType":"ERROR_RATE","fromDate":0,"toDate":60,"operation":"LESS_EQUALS","value":5.0,"result":0.0,"status":"SUCCESS"}],"transactionName":"Transaction 12345","transactionId":"8af9b9a4-b28f-40cd-9630-83df16baf5cc","threadGroupName":null,"threadGroupId":null}],"status":"SUCCESS"},"testResultFilesState":"FINISHED"},"testError":null}],"pageable":{"sort":{"sorted":true,"unsorted":false,"empty":false},"pageNumber":0,"pageSize":7,"offset":0,"paged":true,"unpaged":false},"last":false,"totalElements":45,"totalPages":7,"first":true,"sort":{"sorted":true,"unsorted":false,"empty":false},"numberOfElements":7,"size":7,"number":0,"empty":false}